%FSLAX45Y45*%
G04 Gerber Fmt 4.5, Leading zero omitted, Abs format (unit mm)*
G04 Created by KiCad (PCBNEW 6.0.2+dfsg-1) date 2022-02-18 15:05:30*
%MOMM*%
%LPD*%
G01*
G04 APERTURE LIST*
%TA.AperFunction,Profile*%
%ADD10C,0.100000*%
%TD*%
%ADD11C,0.200000*%
%ADD12C,0.210000*%
G04 APERTURE END LIST*
D10*
X19050000Y-2540000D02*
X14224000Y-2540000D01*
X19050000Y-6223000D02*
X19050000Y-2540000D01*
X14224000Y-6223000D02*
X19050000Y-6223000D01*
X14224000Y-2540000D02*
X14224000Y-6223000D01*
D11*
D12*
X14500000Y-2816000D02*
X14710000Y-3026000D01*
X14710000Y-2816000D02*
X14500000Y-3026000D01*
X14500000Y-5737000D02*
X14710000Y-5947000D01*
X14710000Y-5737000D02*
X14500000Y-5947000D01*
X16151000Y-5737000D02*
X16361000Y-5947000D01*
X16361000Y-5737000D02*
X16151000Y-5947000D01*
X18564000Y-2816000D02*
X18774000Y-3026000D01*
X18774000Y-2816000D02*
X18564000Y-3026000D01*
D11*
X14476619Y-6538476D02*
X14476619Y-6338476D01*
X14524238Y-6338476D01*
X14552809Y-6348000D01*
X14571857Y-6367048D01*
X14581381Y-6386095D01*
X14590905Y-6424190D01*
X14590905Y-6452762D01*
X14581381Y-6490857D01*
X14571857Y-6509905D01*
X14552809Y-6528952D01*
X14524238Y-6538476D01*
X14476619Y-6538476D01*
X14676619Y-6538476D02*
X14676619Y-6405143D01*
X14676619Y-6443238D02*
X14686143Y-6424190D01*
X14695667Y-6414667D01*
X14714714Y-6405143D01*
X14733762Y-6405143D01*
X14800428Y-6538476D02*
X14800428Y-6405143D01*
X14800428Y-6338476D02*
X14790905Y-6348000D01*
X14800428Y-6357524D01*
X14809952Y-6348000D01*
X14800428Y-6338476D01*
X14800428Y-6357524D01*
X14924238Y-6538476D02*
X14905190Y-6528952D01*
X14895667Y-6509905D01*
X14895667Y-6338476D01*
X15029000Y-6538476D02*
X15009952Y-6528952D01*
X15000428Y-6509905D01*
X15000428Y-6338476D01*
X15257571Y-6538476D02*
X15257571Y-6338476D01*
X15324238Y-6481333D01*
X15390905Y-6338476D01*
X15390905Y-6538476D01*
X15571857Y-6538476D02*
X15571857Y-6433714D01*
X15562333Y-6414667D01*
X15543286Y-6405143D01*
X15505190Y-6405143D01*
X15486143Y-6414667D01*
X15571857Y-6528952D02*
X15552809Y-6538476D01*
X15505190Y-6538476D01*
X15486143Y-6528952D01*
X15476619Y-6509905D01*
X15476619Y-6490857D01*
X15486143Y-6471809D01*
X15505190Y-6462286D01*
X15552809Y-6462286D01*
X15571857Y-6452762D01*
X15667095Y-6405143D02*
X15667095Y-6605143D01*
X15667095Y-6414667D02*
X15686143Y-6405143D01*
X15724238Y-6405143D01*
X15743286Y-6414667D01*
X15752809Y-6424190D01*
X15762333Y-6443238D01*
X15762333Y-6500381D01*
X15752809Y-6519428D01*
X15743286Y-6528952D01*
X15724238Y-6538476D01*
X15686143Y-6538476D01*
X15667095Y-6528952D01*
X15848048Y-6519428D02*
X15857571Y-6528952D01*
X15848048Y-6538476D01*
X15838524Y-6528952D01*
X15848048Y-6519428D01*
X15848048Y-6538476D01*
X15848048Y-6414667D02*
X15857571Y-6424190D01*
X15848048Y-6433714D01*
X15838524Y-6424190D01*
X15848048Y-6414667D01*
X15848048Y-6433714D01*
X14019000Y-6768000D02*
X14219000Y-6968000D01*
X14219000Y-6768000D02*
X14019000Y-6968000D01*
X14467095Y-6777524D02*
X14476619Y-6768000D01*
X14495667Y-6758476D01*
X14543286Y-6758476D01*
X14562333Y-6768000D01*
X14571857Y-6777524D01*
X14581381Y-6796571D01*
X14581381Y-6815619D01*
X14571857Y-6844190D01*
X14457571Y-6958476D01*
X14581381Y-6958476D01*
X14667095Y-6939428D02*
X14676619Y-6948952D01*
X14667095Y-6958476D01*
X14657571Y-6948952D01*
X14667095Y-6939428D01*
X14667095Y-6958476D01*
X14867095Y-6958476D02*
X14752809Y-6958476D01*
X14809952Y-6958476D02*
X14809952Y-6758476D01*
X14790905Y-6787048D01*
X14771857Y-6806095D01*
X14752809Y-6815619D01*
X14990905Y-6758476D02*
X15009952Y-6758476D01*
X15029000Y-6768000D01*
X15038524Y-6777524D01*
X15048048Y-6796571D01*
X15057571Y-6834667D01*
X15057571Y-6882286D01*
X15048048Y-6920381D01*
X15038524Y-6939428D01*
X15029000Y-6948952D01*
X15009952Y-6958476D01*
X14990905Y-6958476D01*
X14971857Y-6948952D01*
X14962333Y-6939428D01*
X14952809Y-6920381D01*
X14943286Y-6882286D01*
X14943286Y-6834667D01*
X14952809Y-6796571D01*
X14962333Y-6777524D01*
X14971857Y-6768000D01*
X14990905Y-6758476D01*
X15181381Y-6758476D02*
X15200428Y-6758476D01*
X15219476Y-6768000D01*
X15229000Y-6777524D01*
X15238524Y-6796571D01*
X15248048Y-6834667D01*
X15248048Y-6882286D01*
X15238524Y-6920381D01*
X15229000Y-6939428D01*
X15219476Y-6948952D01*
X15200428Y-6958476D01*
X15181381Y-6958476D01*
X15162333Y-6948952D01*
X15152809Y-6939428D01*
X15143286Y-6920381D01*
X15133762Y-6882286D01*
X15133762Y-6834667D01*
X15143286Y-6796571D01*
X15152809Y-6777524D01*
X15162333Y-6768000D01*
X15181381Y-6758476D01*
X15333762Y-6958476D02*
X15333762Y-6825143D01*
X15333762Y-6844190D02*
X15343286Y-6834667D01*
X15362333Y-6825143D01*
X15390905Y-6825143D01*
X15409952Y-6834667D01*
X15419476Y-6853714D01*
X15419476Y-6958476D01*
X15419476Y-6853714D02*
X15429000Y-6834667D01*
X15448048Y-6825143D01*
X15476619Y-6825143D01*
X15495667Y-6834667D01*
X15505190Y-6853714D01*
X15505190Y-6958476D01*
X15600428Y-6958476D02*
X15600428Y-6825143D01*
X15600428Y-6844190D02*
X15609952Y-6834667D01*
X15629000Y-6825143D01*
X15657571Y-6825143D01*
X15676619Y-6834667D01*
X15686143Y-6853714D01*
X15686143Y-6958476D01*
X15686143Y-6853714D02*
X15695667Y-6834667D01*
X15714714Y-6825143D01*
X15743286Y-6825143D01*
X15762333Y-6834667D01*
X15771857Y-6853714D01*
X15771857Y-6958476D01*
X16162333Y-6748952D02*
X15990905Y-7006095D01*
X16419476Y-6758476D02*
X16438524Y-6758476D01*
X16457571Y-6768000D01*
X16467095Y-6777524D01*
X16476619Y-6796571D01*
X16486143Y-6834667D01*
X16486143Y-6882286D01*
X16476619Y-6920381D01*
X16467095Y-6939428D01*
X16457571Y-6948952D01*
X16438524Y-6958476D01*
X16419476Y-6958476D01*
X16400428Y-6948952D01*
X16390905Y-6939428D01*
X16381381Y-6920381D01*
X16371857Y-6882286D01*
X16371857Y-6834667D01*
X16381381Y-6796571D01*
X16390905Y-6777524D01*
X16400428Y-6768000D01*
X16419476Y-6758476D01*
X16571857Y-6939428D02*
X16581381Y-6948952D01*
X16571857Y-6958476D01*
X16562333Y-6948952D01*
X16571857Y-6939428D01*
X16571857Y-6958476D01*
X16705190Y-6758476D02*
X16724238Y-6758476D01*
X16743286Y-6768000D01*
X16752809Y-6777524D01*
X16762333Y-6796571D01*
X16771857Y-6834667D01*
X16771857Y-6882286D01*
X16762333Y-6920381D01*
X16752809Y-6939428D01*
X16743286Y-6948952D01*
X16724238Y-6958476D01*
X16705190Y-6958476D01*
X16686143Y-6948952D01*
X16676619Y-6939428D01*
X16667095Y-6920381D01*
X16657571Y-6882286D01*
X16657571Y-6834667D01*
X16667095Y-6796571D01*
X16676619Y-6777524D01*
X16686143Y-6768000D01*
X16705190Y-6758476D01*
X16886143Y-6844190D02*
X16867095Y-6834667D01*
X16857571Y-6825143D01*
X16848048Y-6806095D01*
X16848048Y-6796571D01*
X16857571Y-6777524D01*
X16867095Y-6768000D01*
X16886143Y-6758476D01*
X16924238Y-6758476D01*
X16943286Y-6768000D01*
X16952810Y-6777524D01*
X16962333Y-6796571D01*
X16962333Y-6806095D01*
X16952810Y-6825143D01*
X16943286Y-6834667D01*
X16924238Y-6844190D01*
X16886143Y-6844190D01*
X16867095Y-6853714D01*
X16857571Y-6863238D01*
X16848048Y-6882286D01*
X16848048Y-6920381D01*
X16857571Y-6939428D01*
X16867095Y-6948952D01*
X16886143Y-6958476D01*
X16924238Y-6958476D01*
X16943286Y-6948952D01*
X16952810Y-6939428D01*
X16962333Y-6920381D01*
X16962333Y-6882286D01*
X16952810Y-6863238D01*
X16943286Y-6853714D01*
X16924238Y-6844190D01*
X17038524Y-6777524D02*
X17048048Y-6768000D01*
X17067095Y-6758476D01*
X17114714Y-6758476D01*
X17133762Y-6768000D01*
X17143286Y-6777524D01*
X17152810Y-6796571D01*
X17152810Y-6815619D01*
X17143286Y-6844190D01*
X17029000Y-6958476D01*
X17152810Y-6958476D01*
X17219476Y-6758476D02*
X17352810Y-6758476D01*
X17267095Y-6958476D01*
X17419476Y-6758476D02*
X17419476Y-6796571D01*
X17495667Y-6758476D02*
X17495667Y-6796571D01*
X17790905Y-7034667D02*
X17781381Y-7025143D01*
X17762333Y-6996571D01*
X17752810Y-6977524D01*
X17743286Y-6948952D01*
X17733762Y-6901333D01*
X17733762Y-6863238D01*
X17743286Y-6815619D01*
X17752810Y-6787048D01*
X17762333Y-6768000D01*
X17781381Y-6739428D01*
X17790905Y-6729905D01*
X17952810Y-6825143D02*
X17952810Y-6958476D01*
X17905190Y-6748952D02*
X17857571Y-6891809D01*
X17981381Y-6891809D01*
X18209952Y-6958476D02*
X18209952Y-6758476D01*
X18295667Y-6958476D02*
X18295667Y-6853714D01*
X18286143Y-6834667D01*
X18267095Y-6825143D01*
X18238524Y-6825143D01*
X18219476Y-6834667D01*
X18209952Y-6844190D01*
X18419476Y-6958476D02*
X18400429Y-6948952D01*
X18390905Y-6939428D01*
X18381381Y-6920381D01*
X18381381Y-6863238D01*
X18390905Y-6844190D01*
X18400429Y-6834667D01*
X18419476Y-6825143D01*
X18448048Y-6825143D01*
X18467095Y-6834667D01*
X18476619Y-6844190D01*
X18486143Y-6863238D01*
X18486143Y-6920381D01*
X18476619Y-6939428D01*
X18467095Y-6948952D01*
X18448048Y-6958476D01*
X18419476Y-6958476D01*
X18600429Y-6958476D02*
X18581381Y-6948952D01*
X18571857Y-6929905D01*
X18571857Y-6758476D01*
X18752810Y-6948952D02*
X18733762Y-6958476D01*
X18695667Y-6958476D01*
X18676619Y-6948952D01*
X18667095Y-6929905D01*
X18667095Y-6853714D01*
X18676619Y-6834667D01*
X18695667Y-6825143D01*
X18733762Y-6825143D01*
X18752810Y-6834667D01*
X18762333Y-6853714D01*
X18762333Y-6872762D01*
X18667095Y-6891809D01*
X18838524Y-6948952D02*
X18857571Y-6958476D01*
X18895667Y-6958476D01*
X18914714Y-6948952D01*
X18924238Y-6929905D01*
X18924238Y-6920381D01*
X18914714Y-6901333D01*
X18895667Y-6891809D01*
X18867095Y-6891809D01*
X18848048Y-6882286D01*
X18838524Y-6863238D01*
X18838524Y-6853714D01*
X18848048Y-6834667D01*
X18867095Y-6825143D01*
X18895667Y-6825143D01*
X18914714Y-6834667D01*
X18990905Y-7034667D02*
X19000429Y-7025143D01*
X19019476Y-6996571D01*
X19029000Y-6977524D01*
X19038524Y-6948952D01*
X19048048Y-6901333D01*
X19048048Y-6863238D01*
X19038524Y-6815619D01*
X19029000Y-6787048D01*
X19019476Y-6768000D01*
X19000429Y-6739428D01*
X18990905Y-6729905D01*
X19352810Y-7034667D02*
X19343286Y-7025143D01*
X19324238Y-6996571D01*
X19314714Y-6977524D01*
X19305190Y-6948952D01*
X19295667Y-6901333D01*
X19295667Y-6863238D01*
X19305190Y-6815619D01*
X19314714Y-6787048D01*
X19324238Y-6768000D01*
X19343286Y-6739428D01*
X19352810Y-6729905D01*
X19429000Y-6825143D02*
X19429000Y-6958476D01*
X19429000Y-6844190D02*
X19438524Y-6834667D01*
X19457571Y-6825143D01*
X19486143Y-6825143D01*
X19505190Y-6834667D01*
X19514714Y-6853714D01*
X19514714Y-6958476D01*
X19638524Y-6958476D02*
X19619476Y-6948952D01*
X19609952Y-6939428D01*
X19600429Y-6920381D01*
X19600429Y-6863238D01*
X19609952Y-6844190D01*
X19619476Y-6834667D01*
X19638524Y-6825143D01*
X19667095Y-6825143D01*
X19686143Y-6834667D01*
X19695667Y-6844190D01*
X19705190Y-6863238D01*
X19705190Y-6920381D01*
X19695667Y-6939428D01*
X19686143Y-6948952D01*
X19667095Y-6958476D01*
X19638524Y-6958476D01*
X19762333Y-6825143D02*
X19838524Y-6825143D01*
X19790905Y-6758476D02*
X19790905Y-6929905D01*
X19800429Y-6948952D01*
X19819476Y-6958476D01*
X19838524Y-6958476D01*
X20057571Y-6825143D02*
X20057571Y-7025143D01*
X20057571Y-6834667D02*
X20076619Y-6825143D01*
X20114714Y-6825143D01*
X20133762Y-6834667D01*
X20143286Y-6844190D01*
X20152810Y-6863238D01*
X20152810Y-6920381D01*
X20143286Y-6939428D01*
X20133762Y-6948952D01*
X20114714Y-6958476D01*
X20076619Y-6958476D01*
X20057571Y-6948952D01*
X20267095Y-6958476D02*
X20248048Y-6948952D01*
X20238524Y-6929905D01*
X20238524Y-6758476D01*
X20429000Y-6958476D02*
X20429000Y-6853714D01*
X20419476Y-6834667D01*
X20400429Y-6825143D01*
X20362333Y-6825143D01*
X20343286Y-6834667D01*
X20429000Y-6948952D02*
X20409952Y-6958476D01*
X20362333Y-6958476D01*
X20343286Y-6948952D01*
X20333762Y-6929905D01*
X20333762Y-6910857D01*
X20343286Y-6891809D01*
X20362333Y-6882286D01*
X20409952Y-6882286D01*
X20429000Y-6872762D01*
X20495667Y-6825143D02*
X20571857Y-6825143D01*
X20524238Y-6758476D02*
X20524238Y-6929905D01*
X20533762Y-6948952D01*
X20552810Y-6958476D01*
X20571857Y-6958476D01*
X20714714Y-6948952D02*
X20695667Y-6958476D01*
X20657571Y-6958476D01*
X20638524Y-6948952D01*
X20629000Y-6929905D01*
X20629000Y-6853714D01*
X20638524Y-6834667D01*
X20657571Y-6825143D01*
X20695667Y-6825143D01*
X20714714Y-6834667D01*
X20724238Y-6853714D01*
X20724238Y-6872762D01*
X20629000Y-6891809D01*
X20895667Y-6958476D02*
X20895667Y-6758476D01*
X20895667Y-6948952D02*
X20876619Y-6958476D01*
X20838524Y-6958476D01*
X20819476Y-6948952D01*
X20809952Y-6939428D01*
X20800429Y-6920381D01*
X20800429Y-6863238D01*
X20809952Y-6844190D01*
X20819476Y-6834667D01*
X20838524Y-6825143D01*
X20876619Y-6825143D01*
X20895667Y-6834667D01*
X20971857Y-7034667D02*
X20981381Y-7025143D01*
X21000429Y-6996571D01*
X21009952Y-6977524D01*
X21019476Y-6948952D01*
X21029000Y-6901333D01*
X21029000Y-6863238D01*
X21019476Y-6815619D01*
X21009952Y-6787048D01*
X21000429Y-6768000D01*
X20981381Y-6739428D01*
X20971857Y-6729905D01*
M02*
