%TF.GenerationSoftware,KiCad,Pcbnew,6.0.2+dfsg-1*%
%TF.CreationDate,2022-02-18T15:05:36+01:00*%
%TF.ProjectId,charger,63686172-6765-4722-9e6b-696361645f70,rev?*%
%TF.SameCoordinates,Original*%
%TF.FileFunction,Soldermask,Bot*%
%TF.FilePolarity,Negative*%
%FSLAX46Y46*%
G04 Gerber Fmt 4.6, Leading zero omitted, Abs format (unit mm)*
G04 Created by KiCad (PCBNEW 6.0.2+dfsg-1) date 2022-02-18 15:05:36*
%MOMM*%
%LPD*%
G01*
G04 APERTURE LIST*
G04 Aperture macros list*
%AMRoundRect*
0 Rectangle with rounded corners*
0 $1 Rounding radius*
0 $2 $3 $4 $5 $6 $7 $8 $9 X,Y pos of 4 corners*
0 Add a 4 corners polygon primitive as box body*
4,1,4,$2,$3,$4,$5,$6,$7,$8,$9,$2,$3,0*
0 Add four circle primitives for the rounded corners*
1,1,$1+$1,$2,$3*
1,1,$1+$1,$4,$5*
1,1,$1+$1,$6,$7*
1,1,$1+$1,$8,$9*
0 Add four rect primitives between the rounded corners*
20,1,$1+$1,$2,$3,$4,$5,0*
20,1,$1+$1,$4,$5,$6,$7,0*
20,1,$1+$1,$6,$7,$8,$9,0*
20,1,$1+$1,$8,$9,$2,$3,0*%
G04 Aperture macros list end*
%ADD10C,2.100000*%
%ADD11R,1.905000X2.000000*%
%ADD12O,1.905000X2.000000*%
%ADD13RoundRect,0.250000X-0.450000X0.262500X-0.450000X-0.262500X0.450000X-0.262500X0.450000X0.262500X0*%
%ADD14RoundRect,0.250000X0.262500X0.450000X-0.262500X0.450000X-0.262500X-0.450000X0.262500X-0.450000X0*%
%ADD15RoundRect,0.250000X-0.262500X-0.450000X0.262500X-0.450000X0.262500X0.450000X-0.262500X0.450000X0*%
%ADD16R,1.050000X1.500000*%
%ADD17O,1.050000X1.500000*%
%ADD18R,1.500000X1.050000*%
%ADD19O,1.500000X1.050000*%
%ADD20RoundRect,1.500000X-1.500000X-1.500000X1.500000X-1.500000X1.500000X1.500000X-1.500000X1.500000X0*%
%ADD21C,6.000000*%
%ADD22RoundRect,1.500000X1.500000X-1.500000X1.500000X1.500000X-1.500000X1.500000X-1.500000X-1.500000X0*%
%ADD23R,2.200000X2.200000*%
%ADD24O,2.200000X2.200000*%
G04 APERTURE END LIST*
D10*
%TO.C,REF3*%
X162560000Y-58420000D03*
%TD*%
%TO.C,REF4*%
X146050000Y-58420000D03*
%TD*%
%TO.C,REF2*%
X146050000Y-29210000D03*
%TD*%
%TO.C,REF1*%
X186690000Y-29210000D03*
%TD*%
D11*
%TO.C,U1*%
X156210000Y-36505000D03*
D12*
X158750000Y-36505000D03*
X161290000Y-36505000D03*
%TD*%
D13*
%TO.C,R5*%
X180340000Y-46077500D03*
X180340000Y-47902500D03*
%TD*%
D14*
%TO.C,R4*%
X183792500Y-55880000D03*
X181967500Y-55880000D03*
%TD*%
%TO.C,R2*%
X162782500Y-50800000D03*
X160957500Y-50800000D03*
%TD*%
D15*
%TO.C,R1*%
X160957500Y-46990000D03*
X162782500Y-46990000D03*
%TD*%
D16*
%TO.C,Q2*%
X179070000Y-52070000D03*
D17*
X177800000Y-52070000D03*
X176530000Y-52070000D03*
%TD*%
D18*
%TO.C,Q1*%
X170180000Y-55880000D03*
D19*
X170180000Y-54610000D03*
X170180000Y-53340000D03*
%TD*%
D20*
%TO.C,Battery + / -*%
X175680000Y-38100000D03*
D21*
X182880000Y-38100000D03*
%TD*%
D22*
%TO.C,Power In +*%
X147320000Y-50380000D03*
D21*
X147320000Y-43180000D03*
%TD*%
D23*
%TO.C,D1*%
X176530000Y-46990000D03*
D24*
X166370000Y-46990000D03*
%TD*%
M02*
