%TF.GenerationSoftware,KiCad,Pcbnew,6.0.2+dfsg-1*%
%TF.CreationDate,2022-02-18T15:05:36+01:00*%
%TF.ProjectId,charger,63686172-6765-4722-9e6b-696361645f70,rev?*%
%TF.SameCoordinates,Original*%
%TF.FileFunction,Profile,NP*%
%FSLAX46Y46*%
G04 Gerber Fmt 4.6, Leading zero omitted, Abs format (unit mm)*
G04 Created by KiCad (PCBNEW 6.0.2+dfsg-1) date 2022-02-18 15:05:36*
%MOMM*%
%LPD*%
G01*
G04 APERTURE LIST*
%TA.AperFunction,Profile*%
%ADD10C,0.100000*%
%TD*%
G04 APERTURE END LIST*
D10*
X143906666Y-25400000D02*
G75*
G03*
X143906666Y-25400000I-1666666J0D01*
G01*
X139740000Y-25400000D02*
X144740000Y-25400000D01*
X142240000Y-22900000D02*
X142240000Y-27900000D01*
X190500000Y-25400000D02*
X142240000Y-25400000D01*
X190500000Y-62230000D02*
X190500000Y-25400000D01*
X142240000Y-62230000D02*
X190500000Y-62230000D01*
X142240000Y-25400000D02*
X142240000Y-62230000D01*
M02*
