%TF.GenerationSoftware,KiCad,Pcbnew,6.0.2+dfsg-1*%
%TF.CreationDate,2022-02-18T15:05:35+01:00*%
%TF.ProjectId,charger,63686172-6765-4722-9e6b-696361645f70,rev?*%
%TF.SameCoordinates,Original*%
%TF.FileFunction,Legend,Top*%
%TF.FilePolarity,Positive*%
%FSLAX46Y46*%
G04 Gerber Fmt 4.6, Leading zero omitted, Abs format (unit mm)*
G04 Created by KiCad (PCBNEW 6.0.2+dfsg-1) date 2022-02-18 15:05:35*
%MOMM*%
%LPD*%
G01*
G04 APERTURE LIST*
%ADD10C,0.150000*%
%ADD11C,0.120000*%
G04 APERTURE END LIST*
D10*
X155345238Y-29662380D02*
X155345238Y-28662380D01*
X155345238Y-29138571D02*
X155916666Y-29138571D01*
X155916666Y-29662380D02*
X155916666Y-28662380D01*
X156773809Y-29614761D02*
X156678571Y-29662380D01*
X156488095Y-29662380D01*
X156392857Y-29614761D01*
X156345238Y-29519523D01*
X156345238Y-29138571D01*
X156392857Y-29043333D01*
X156488095Y-28995714D01*
X156678571Y-28995714D01*
X156773809Y-29043333D01*
X156821428Y-29138571D01*
X156821428Y-29233809D01*
X156345238Y-29329047D01*
X157678571Y-29662380D02*
X157678571Y-29138571D01*
X157630952Y-29043333D01*
X157535714Y-28995714D01*
X157345238Y-28995714D01*
X157250000Y-29043333D01*
X157678571Y-29614761D02*
X157583333Y-29662380D01*
X157345238Y-29662380D01*
X157250000Y-29614761D01*
X157202380Y-29519523D01*
X157202380Y-29424285D01*
X157250000Y-29329047D01*
X157345238Y-29281428D01*
X157583333Y-29281428D01*
X157678571Y-29233809D01*
X158011904Y-28995714D02*
X158392857Y-28995714D01*
X158154761Y-28662380D02*
X158154761Y-29519523D01*
X158202380Y-29614761D01*
X158297619Y-29662380D01*
X158392857Y-29662380D01*
X159440476Y-29614761D02*
X159583333Y-29662380D01*
X159821428Y-29662380D01*
X159916666Y-29614761D01*
X159964285Y-29567142D01*
X160011904Y-29471904D01*
X160011904Y-29376666D01*
X159964285Y-29281428D01*
X159916666Y-29233809D01*
X159821428Y-29186190D01*
X159630952Y-29138571D01*
X159535714Y-29090952D01*
X159488095Y-29043333D01*
X159440476Y-28948095D01*
X159440476Y-28852857D01*
X159488095Y-28757619D01*
X159535714Y-28710000D01*
X159630952Y-28662380D01*
X159869047Y-28662380D01*
X160011904Y-28710000D01*
X160440476Y-29662380D02*
X160440476Y-28995714D01*
X160440476Y-28662380D02*
X160392857Y-28710000D01*
X160440476Y-28757619D01*
X160488095Y-28710000D01*
X160440476Y-28662380D01*
X160440476Y-28757619D01*
X160916666Y-28995714D02*
X160916666Y-29662380D01*
X160916666Y-29090952D02*
X160964285Y-29043333D01*
X161059523Y-28995714D01*
X161202380Y-28995714D01*
X161297619Y-29043333D01*
X161345238Y-29138571D01*
X161345238Y-29662380D01*
X161821428Y-29662380D02*
X161821428Y-28662380D01*
X161916666Y-29281428D02*
X162202380Y-29662380D01*
X162202380Y-28995714D02*
X161821428Y-29376666D01*
X166370000Y-33020000D02*
X151130000Y-33020000D01*
X151130000Y-33020000D02*
X151130000Y-26670000D01*
X151130000Y-26670000D02*
X166370000Y-26670000D01*
X166370000Y-26670000D02*
X166370000Y-33020000D01*
%TO.C,U2*%
X182118095Y-49072380D02*
X182118095Y-49881904D01*
X182165714Y-49977142D01*
X182213333Y-50024761D01*
X182308571Y-50072380D01*
X182499047Y-50072380D01*
X182594285Y-50024761D01*
X182641904Y-49977142D01*
X182689523Y-49881904D01*
X182689523Y-49072380D01*
X183118095Y-49167619D02*
X183165714Y-49120000D01*
X183260952Y-49072380D01*
X183499047Y-49072380D01*
X183594285Y-49120000D01*
X183641904Y-49167619D01*
X183689523Y-49262857D01*
X183689523Y-49358095D01*
X183641904Y-49500952D01*
X183070476Y-50072380D01*
X183689523Y-50072380D01*
%TO.C,U1*%
X157988095Y-31687380D02*
X157988095Y-32496904D01*
X158035714Y-32592142D01*
X158083333Y-32639761D01*
X158178571Y-32687380D01*
X158369047Y-32687380D01*
X158464285Y-32639761D01*
X158511904Y-32592142D01*
X158559523Y-32496904D01*
X158559523Y-31687380D01*
X159559523Y-32687380D02*
X158988095Y-32687380D01*
X159273809Y-32687380D02*
X159273809Y-31687380D01*
X159178571Y-31830238D01*
X159083333Y-31925476D01*
X158988095Y-31973095D01*
%TO.C,R3*%
X177633333Y-60142380D02*
X177300000Y-59666190D01*
X177061904Y-60142380D02*
X177061904Y-59142380D01*
X177442857Y-59142380D01*
X177538095Y-59190000D01*
X177585714Y-59237619D01*
X177633333Y-59332857D01*
X177633333Y-59475714D01*
X177585714Y-59570952D01*
X177538095Y-59618571D01*
X177442857Y-59666190D01*
X177061904Y-59666190D01*
X177966666Y-59142380D02*
X178585714Y-59142380D01*
X178252380Y-59523333D01*
X178395238Y-59523333D01*
X178490476Y-59570952D01*
X178538095Y-59618571D01*
X178585714Y-59713809D01*
X178585714Y-59951904D01*
X178538095Y-60047142D01*
X178490476Y-60094761D01*
X178395238Y-60142380D01*
X178109523Y-60142380D01*
X178014285Y-60094761D01*
X177966666Y-60047142D01*
%TO.C,Q2*%
X177704761Y-56177619D02*
X177609523Y-56130000D01*
X177514285Y-56034761D01*
X177371428Y-55891904D01*
X177276190Y-55844285D01*
X177180952Y-55844285D01*
X177228571Y-56082380D02*
X177133333Y-56034761D01*
X177038095Y-55939523D01*
X176990476Y-55749047D01*
X176990476Y-55415714D01*
X177038095Y-55225238D01*
X177133333Y-55130000D01*
X177228571Y-55082380D01*
X177419047Y-55082380D01*
X177514285Y-55130000D01*
X177609523Y-55225238D01*
X177657142Y-55415714D01*
X177657142Y-55749047D01*
X177609523Y-55939523D01*
X177514285Y-56034761D01*
X177419047Y-56082380D01*
X177228571Y-56082380D01*
X178038095Y-55177619D02*
X178085714Y-55130000D01*
X178180952Y-55082380D01*
X178419047Y-55082380D01*
X178514285Y-55130000D01*
X178561904Y-55177619D01*
X178609523Y-55272857D01*
X178609523Y-55368095D01*
X178561904Y-55510952D01*
X177990476Y-56082380D01*
X178609523Y-56082380D01*
%TO.C,Q1*%
X166274761Y-55157619D02*
X166179523Y-55110000D01*
X166084285Y-55014761D01*
X165941428Y-54871904D01*
X165846190Y-54824285D01*
X165750952Y-54824285D01*
X165798571Y-55062380D02*
X165703333Y-55014761D01*
X165608095Y-54919523D01*
X165560476Y-54729047D01*
X165560476Y-54395714D01*
X165608095Y-54205238D01*
X165703333Y-54110000D01*
X165798571Y-54062380D01*
X165989047Y-54062380D01*
X166084285Y-54110000D01*
X166179523Y-54205238D01*
X166227142Y-54395714D01*
X166227142Y-54729047D01*
X166179523Y-54919523D01*
X166084285Y-55014761D01*
X165989047Y-55062380D01*
X165798571Y-55062380D01*
X167179523Y-55062380D02*
X166608095Y-55062380D01*
X166893809Y-55062380D02*
X166893809Y-54062380D01*
X166798571Y-54205238D01*
X166703333Y-54300476D01*
X166608095Y-54348095D01*
%TO.C,Battery + / -*%
X171553809Y-31678571D02*
X171696666Y-31726190D01*
X171744285Y-31773809D01*
X171791904Y-31869047D01*
X171791904Y-32011904D01*
X171744285Y-32107142D01*
X171696666Y-32154761D01*
X171601428Y-32202380D01*
X171220476Y-32202380D01*
X171220476Y-31202380D01*
X171553809Y-31202380D01*
X171649047Y-31250000D01*
X171696666Y-31297619D01*
X171744285Y-31392857D01*
X171744285Y-31488095D01*
X171696666Y-31583333D01*
X171649047Y-31630952D01*
X171553809Y-31678571D01*
X171220476Y-31678571D01*
X172649047Y-32202380D02*
X172649047Y-31678571D01*
X172601428Y-31583333D01*
X172506190Y-31535714D01*
X172315714Y-31535714D01*
X172220476Y-31583333D01*
X172649047Y-32154761D02*
X172553809Y-32202380D01*
X172315714Y-32202380D01*
X172220476Y-32154761D01*
X172172857Y-32059523D01*
X172172857Y-31964285D01*
X172220476Y-31869047D01*
X172315714Y-31821428D01*
X172553809Y-31821428D01*
X172649047Y-31773809D01*
X172982380Y-31535714D02*
X173363333Y-31535714D01*
X173125238Y-31202380D02*
X173125238Y-32059523D01*
X173172857Y-32154761D01*
X173268095Y-32202380D01*
X173363333Y-32202380D01*
X173553809Y-31535714D02*
X173934761Y-31535714D01*
X173696666Y-31202380D02*
X173696666Y-32059523D01*
X173744285Y-32154761D01*
X173839523Y-32202380D01*
X173934761Y-32202380D01*
X174649047Y-32154761D02*
X174553809Y-32202380D01*
X174363333Y-32202380D01*
X174268095Y-32154761D01*
X174220476Y-32059523D01*
X174220476Y-31678571D01*
X174268095Y-31583333D01*
X174363333Y-31535714D01*
X174553809Y-31535714D01*
X174649047Y-31583333D01*
X174696666Y-31678571D01*
X174696666Y-31773809D01*
X174220476Y-31869047D01*
X175125238Y-32202380D02*
X175125238Y-31535714D01*
X175125238Y-31726190D02*
X175172857Y-31630952D01*
X175220476Y-31583333D01*
X175315714Y-31535714D01*
X175410952Y-31535714D01*
X175649047Y-31535714D02*
X175887142Y-32202380D01*
X176125238Y-31535714D02*
X175887142Y-32202380D01*
X175791904Y-32440476D01*
X175744285Y-32488095D01*
X175649047Y-32535714D01*
X177268095Y-31821428D02*
X178030000Y-31821428D01*
X177649047Y-32202380D02*
X177649047Y-31440476D01*
X179982380Y-31154761D02*
X179125238Y-32440476D01*
X181077619Y-31821428D02*
X181839523Y-31821428D01*
%TO.C,Power In +*%
X143272380Y-37282380D02*
X143272380Y-36282380D01*
X143653333Y-36282380D01*
X143748571Y-36330000D01*
X143796190Y-36377619D01*
X143843809Y-36472857D01*
X143843809Y-36615714D01*
X143796190Y-36710952D01*
X143748571Y-36758571D01*
X143653333Y-36806190D01*
X143272380Y-36806190D01*
X144415238Y-37282380D02*
X144320000Y-37234761D01*
X144272380Y-37187142D01*
X144224761Y-37091904D01*
X144224761Y-36806190D01*
X144272380Y-36710952D01*
X144320000Y-36663333D01*
X144415238Y-36615714D01*
X144558095Y-36615714D01*
X144653333Y-36663333D01*
X144700952Y-36710952D01*
X144748571Y-36806190D01*
X144748571Y-37091904D01*
X144700952Y-37187142D01*
X144653333Y-37234761D01*
X144558095Y-37282380D01*
X144415238Y-37282380D01*
X145081904Y-36615714D02*
X145272380Y-37282380D01*
X145462857Y-36806190D01*
X145653333Y-37282380D01*
X145843809Y-36615714D01*
X146605714Y-37234761D02*
X146510476Y-37282380D01*
X146320000Y-37282380D01*
X146224761Y-37234761D01*
X146177142Y-37139523D01*
X146177142Y-36758571D01*
X146224761Y-36663333D01*
X146320000Y-36615714D01*
X146510476Y-36615714D01*
X146605714Y-36663333D01*
X146653333Y-36758571D01*
X146653333Y-36853809D01*
X146177142Y-36949047D01*
X147081904Y-37282380D02*
X147081904Y-36615714D01*
X147081904Y-36806190D02*
X147129523Y-36710952D01*
X147177142Y-36663333D01*
X147272380Y-36615714D01*
X147367619Y-36615714D01*
X148462857Y-37282380D02*
X148462857Y-36282380D01*
X148939047Y-36615714D02*
X148939047Y-37282380D01*
X148939047Y-36710952D02*
X148986666Y-36663333D01*
X149081904Y-36615714D01*
X149224761Y-36615714D01*
X149320000Y-36663333D01*
X149367619Y-36758571D01*
X149367619Y-37282380D01*
X150605714Y-36901428D02*
X151367619Y-36901428D01*
X150986666Y-37282380D02*
X150986666Y-36520476D01*
%TO.C,D1*%
X170711904Y-49912380D02*
X170711904Y-48912380D01*
X170950000Y-48912380D01*
X171092857Y-48960000D01*
X171188095Y-49055238D01*
X171235714Y-49150476D01*
X171283333Y-49340952D01*
X171283333Y-49483809D01*
X171235714Y-49674285D01*
X171188095Y-49769523D01*
X171092857Y-49864761D01*
X170950000Y-49912380D01*
X170711904Y-49912380D01*
X172235714Y-49912380D02*
X171664285Y-49912380D01*
X171950000Y-49912380D02*
X171950000Y-48912380D01*
X171854761Y-49055238D01*
X171759523Y-49150476D01*
X171664285Y-49198095D01*
X173728095Y-49982380D02*
X173728095Y-48982380D01*
X174299523Y-49982380D02*
X173870952Y-49410952D01*
X174299523Y-48982380D02*
X173728095Y-49553809D01*
%TO.C,C2*%
X182713333Y-58777142D02*
X182665714Y-58824761D01*
X182522857Y-58872380D01*
X182427619Y-58872380D01*
X182284761Y-58824761D01*
X182189523Y-58729523D01*
X182141904Y-58634285D01*
X182094285Y-58443809D01*
X182094285Y-58300952D01*
X182141904Y-58110476D01*
X182189523Y-58015238D01*
X182284761Y-57920000D01*
X182427619Y-57872380D01*
X182522857Y-57872380D01*
X182665714Y-57920000D01*
X182713333Y-57967619D01*
X183094285Y-57967619D02*
X183141904Y-57920000D01*
X183237142Y-57872380D01*
X183475238Y-57872380D01*
X183570476Y-57920000D01*
X183618095Y-57967619D01*
X183665714Y-58062857D01*
X183665714Y-58158095D01*
X183618095Y-58300952D01*
X183046666Y-58872380D01*
X183665714Y-58872380D01*
%TO.C,C1*%
X154983333Y-44807142D02*
X154935714Y-44854761D01*
X154792857Y-44902380D01*
X154697619Y-44902380D01*
X154554761Y-44854761D01*
X154459523Y-44759523D01*
X154411904Y-44664285D01*
X154364285Y-44473809D01*
X154364285Y-44330952D01*
X154411904Y-44140476D01*
X154459523Y-44045238D01*
X154554761Y-43950000D01*
X154697619Y-43902380D01*
X154792857Y-43902380D01*
X154935714Y-43950000D01*
X154983333Y-43997619D01*
X155935714Y-44902380D02*
X155364285Y-44902380D01*
X155650000Y-44902380D02*
X155650000Y-43902380D01*
X155554761Y-44045238D01*
X155459523Y-44140476D01*
X155364285Y-44188095D01*
D11*
%TO.C,U2*%
X182080000Y-53670000D02*
X183680000Y-53670000D01*
X183680000Y-50470000D02*
X181380000Y-50470000D01*
%TO.C,U1*%
X153630000Y-33235000D02*
X163870000Y-33235000D01*
X156900000Y-33235000D02*
X156900000Y-34745000D01*
X160601000Y-33235000D02*
X160601000Y-34745000D01*
X153630000Y-33235000D02*
X153630000Y-37876000D01*
X153630000Y-37876000D02*
X163870000Y-37876000D01*
X163870000Y-33235000D02*
X163870000Y-37876000D01*
X153630000Y-34745000D02*
X163870000Y-34745000D01*
%TO.C,R3*%
X177572936Y-56415000D02*
X178027064Y-56415000D01*
X177572936Y-57885000D02*
X178027064Y-57885000D01*
%TO.C,Q2*%
X179600000Y-50220000D02*
X176000000Y-50220000D01*
X175961522Y-50231522D02*
G75*
G03*
X177800000Y-54670000I1838478J-1838478D01*
G01*
X177800000Y-54670001D02*
G75*
G03*
X179638478Y-50231522I0J2600001D01*
G01*
%TO.C,Q1*%
X172030000Y-56410000D02*
X172030000Y-52810000D01*
X172018478Y-52771522D02*
G75*
G03*
X167580000Y-54610000I-1838478J-1838478D01*
G01*
X167579999Y-54610000D02*
G75*
G03*
X172018478Y-56448478I2600001J0D01*
G01*
%TO.C,Battery + / -*%
X174280000Y-42250000D02*
X187130000Y-42250000D01*
X187130000Y-42250000D02*
X187130000Y-33950000D01*
X187130000Y-33950000D02*
X174280000Y-33950000D01*
X171430000Y-39650000D02*
X174280000Y-42250000D01*
X171430000Y-36500000D02*
X171430000Y-39650000D01*
X174280000Y-33950000D02*
X171430000Y-36500000D01*
%TO.C,Power In +*%
X151470000Y-51780000D02*
X151470000Y-38930000D01*
X151470000Y-38930000D02*
X143170000Y-38930000D01*
X143170000Y-38930000D02*
X143170000Y-51780000D01*
X148870000Y-54630000D02*
X151470000Y-51780000D01*
X145720000Y-54630000D02*
X148870000Y-54630000D01*
X143170000Y-51780000D02*
X145720000Y-54630000D01*
%TO.C,D1*%
X173270000Y-48460000D02*
X173270000Y-45520000D01*
X173150000Y-48460000D02*
X173150000Y-45520000D01*
X174170000Y-45520000D02*
X168730000Y-45520000D01*
X167710000Y-46990000D02*
X168730000Y-46990000D01*
X174170000Y-48460000D02*
X174170000Y-45520000D01*
X173390000Y-48460000D02*
X173390000Y-45520000D01*
X168730000Y-45520000D02*
X168730000Y-48460000D01*
X175190000Y-46990000D02*
X174170000Y-46990000D01*
X168730000Y-48460000D02*
X174170000Y-48460000D01*
%TO.C,C2*%
X187200000Y-54750580D02*
X187200000Y-54469420D01*
X186180000Y-54750580D02*
X186180000Y-54469420D01*
%TO.C,C1*%
X157770000Y-46530000D02*
X157770000Y-47030000D01*
X158470000Y-48334437D02*
X158470000Y-51790000D01*
X153950000Y-48334437D02*
X153950000Y-51790000D01*
X155014437Y-47270000D02*
X153950000Y-48334437D01*
X158020000Y-46780000D02*
X157520000Y-46780000D01*
X153950000Y-51790000D02*
X155150000Y-51790000D01*
X158470000Y-51790000D02*
X157270000Y-51790000D01*
X157405563Y-47270000D02*
X157270000Y-47270000D01*
X155014437Y-47270000D02*
X155150000Y-47270000D01*
X157405563Y-47270000D02*
X158470000Y-48334437D01*
%TD*%
M02*
