%TF.GenerationSoftware,KiCad,Pcbnew,6.0.2+dfsg-1*%
%TF.CreationDate,2022-02-18T15:05:34+01:00*%
%TF.ProjectId,charger,63686172-6765-4722-9e6b-696361645f70,rev?*%
%TF.SameCoordinates,Original*%
%TF.FileFunction,Copper,L2,Bot*%
%TF.FilePolarity,Positive*%
%FSLAX46Y46*%
G04 Gerber Fmt 4.6, Leading zero omitted, Abs format (unit mm)*
G04 Created by KiCad (PCBNEW 6.0.2+dfsg-1) date 2022-02-18 15:05:34*
%MOMM*%
%LPD*%
G01*
G04 APERTURE LIST*
G04 Aperture macros list*
%AMRoundRect*
0 Rectangle with rounded corners*
0 $1 Rounding radius*
0 $2 $3 $4 $5 $6 $7 $8 $9 X,Y pos of 4 corners*
0 Add a 4 corners polygon primitive as box body*
4,1,4,$2,$3,$4,$5,$6,$7,$8,$9,$2,$3,0*
0 Add four circle primitives for the rounded corners*
1,1,$1+$1,$2,$3*
1,1,$1+$1,$4,$5*
1,1,$1+$1,$6,$7*
1,1,$1+$1,$8,$9*
0 Add four rect primitives between the rounded corners*
20,1,$1+$1,$2,$3,$4,$5,0*
20,1,$1+$1,$4,$5,$6,$7,0*
20,1,$1+$1,$6,$7,$8,$9,0*
20,1,$1+$1,$8,$9,$2,$3,0*%
G04 Aperture macros list end*
%TA.AperFunction,ComponentPad*%
%ADD10R,1.905000X2.000000*%
%TD*%
%TA.AperFunction,ComponentPad*%
%ADD11O,1.905000X2.000000*%
%TD*%
%TA.AperFunction,SMDPad,CuDef*%
%ADD12RoundRect,0.250000X-0.450000X0.262500X-0.450000X-0.262500X0.450000X-0.262500X0.450000X0.262500X0*%
%TD*%
%TA.AperFunction,SMDPad,CuDef*%
%ADD13RoundRect,0.250000X0.262500X0.450000X-0.262500X0.450000X-0.262500X-0.450000X0.262500X-0.450000X0*%
%TD*%
%TA.AperFunction,SMDPad,CuDef*%
%ADD14RoundRect,0.250000X-0.262500X-0.450000X0.262500X-0.450000X0.262500X0.450000X-0.262500X0.450000X0*%
%TD*%
%TA.AperFunction,ComponentPad*%
%ADD15R,1.050000X1.500000*%
%TD*%
%TA.AperFunction,ComponentPad*%
%ADD16O,1.050000X1.500000*%
%TD*%
%TA.AperFunction,ComponentPad*%
%ADD17R,1.500000X1.050000*%
%TD*%
%TA.AperFunction,ComponentPad*%
%ADD18O,1.500000X1.050000*%
%TD*%
%TA.AperFunction,ComponentPad*%
%ADD19RoundRect,1.500000X-1.500000X-1.500000X1.500000X-1.500000X1.500000X1.500000X-1.500000X1.500000X0*%
%TD*%
%TA.AperFunction,ComponentPad*%
%ADD20C,6.000000*%
%TD*%
%TA.AperFunction,ComponentPad*%
%ADD21RoundRect,1.500000X1.500000X-1.500000X1.500000X1.500000X-1.500000X1.500000X-1.500000X-1.500000X0*%
%TD*%
%TA.AperFunction,ComponentPad*%
%ADD22R,2.200000X2.200000*%
%TD*%
%TA.AperFunction,ComponentPad*%
%ADD23O,2.200000X2.200000*%
%TD*%
%TA.AperFunction,ViaPad*%
%ADD24C,0.800000*%
%TD*%
%TA.AperFunction,Conductor*%
%ADD25C,1.000000*%
%TD*%
%TA.AperFunction,Conductor*%
%ADD26C,0.750000*%
%TD*%
G04 APERTURE END LIST*
D10*
%TO.P,U1,1,ADJ*%
%TO.N,Net-(R2-Pad2)*%
X156210000Y-36505000D03*
D11*
%TO.P,U1,2,VO*%
%TO.N,Net-(R1-Pad1)*%
X158750000Y-36505000D03*
%TO.P,U1,3,VI*%
%TO.N,+15V*%
X161290000Y-36505000D03*
%TD*%
D12*
%TO.P,R5,1*%
%TO.N,+15V*%
X180340000Y-46077500D03*
%TO.P,R5,2*%
%TO.N,Net-(Q2-Pad2)*%
X180340000Y-47902500D03*
%TD*%
D13*
%TO.P,R4,1*%
%TO.N,Net-(C2-Pad1)*%
X183792500Y-55880000D03*
%TO.P,R4,2*%
%TO.N,GND*%
X181967500Y-55880000D03*
%TD*%
%TO.P,R2,1*%
%TO.N,Net-(R1-Pad2)*%
X162782500Y-50800000D03*
%TO.P,R2,2*%
%TO.N,Net-(R2-Pad2)*%
X160957500Y-50800000D03*
%TD*%
D14*
%TO.P,R1,1*%
%TO.N,Net-(R1-Pad1)*%
X160957500Y-46990000D03*
%TO.P,R1,2*%
%TO.N,Net-(R1-Pad2)*%
X162782500Y-46990000D03*
%TD*%
D15*
%TO.P,Q2,1,E*%
%TO.N,Net-(Q2-Pad1)*%
X179070000Y-52070000D03*
D16*
%TO.P,Q2,2,B*%
%TO.N,Net-(Q2-Pad2)*%
X177800000Y-52070000D03*
%TO.P,Q2,3,C*%
%TO.N,Net-(J2-Pad1)*%
X176530000Y-52070000D03*
%TD*%
D17*
%TO.P,Q1,1,E*%
%TO.N,GND*%
X170180000Y-55880000D03*
D18*
%TO.P,Q1,2,B*%
%TO.N,Net-(Q1-Pad2)*%
X170180000Y-54610000D03*
%TO.P,Q1,3,C*%
%TO.N,Net-(R2-Pad2)*%
X170180000Y-53340000D03*
%TD*%
D19*
%TO.P,Battery + / -,1,Pin_1*%
%TO.N,Net-(J2-Pad1)*%
X175680000Y-38100000D03*
D20*
%TO.P,Battery + / -,2,Pin_2*%
%TO.N,GND*%
X182880000Y-38100000D03*
%TD*%
D21*
%TO.P,Power In +,1,Pin_1*%
%TO.N,GND*%
X147320000Y-50380000D03*
D20*
%TO.P,Power In +,2,Pin_2*%
%TO.N,+15V*%
X147320000Y-43180000D03*
%TD*%
D22*
%TO.P,D1,1,K*%
%TO.N,Net-(J2-Pad1)*%
X176530000Y-46990000D03*
D23*
%TO.P,D1,2,A*%
%TO.N,Net-(R1-Pad2)*%
X166370000Y-46990000D03*
%TD*%
D24*
%TO.N,GND*%
X182880000Y-52070000D03*
X156210000Y-54610000D03*
%TO.N,Net-(Q1-Pad2)*%
X173990000Y-54610000D03*
%TO.N,Net-(C2-Pad1)*%
X185420000Y-55880000D03*
%TO.N,+15V*%
X168910000Y-43180000D03*
X179070000Y-44450000D03*
%TO.N,Net-(Q2-Pad1)*%
X180340000Y-49530000D03*
%TD*%
D25*
%TO.N,Net-(R2-Pad2)*%
X160957500Y-50800000D02*
X160020000Y-50800000D01*
X160020000Y-50800000D02*
X156210000Y-46990000D01*
X156210000Y-46990000D02*
X156210000Y-36505000D01*
D26*
%TO.N,Net-(Q1-Pad2)*%
X173990000Y-54610000D02*
X170180000Y-54610000D01*
%TO.N,Net-(C2-Pad1)*%
X185420000Y-55880000D02*
X183792500Y-55880000D01*
D25*
%TO.N,Net-(R2-Pad2)*%
X160957500Y-50800000D02*
X160957500Y-53007500D01*
X161290000Y-53340000D02*
X170180000Y-53340000D01*
X160957500Y-53007500D02*
X161290000Y-53340000D01*
%TO.N,+15V*%
X152400000Y-33020000D02*
X147320000Y-38100000D01*
X161290000Y-34290000D02*
X160020000Y-33020000D01*
X161290000Y-36505000D02*
X161290000Y-34290000D01*
X160020000Y-33020000D02*
X152400000Y-33020000D01*
X147320000Y-38100000D02*
X147320000Y-43180000D01*
X179070000Y-44450000D02*
X180340000Y-45720000D01*
X161290000Y-36505000D02*
X162235000Y-36505000D01*
X162235000Y-36505000D02*
X168910000Y-43180000D01*
X180340000Y-45720000D02*
X180340000Y-46077500D01*
%TO.N,Net-(R1-Pad1)*%
X160957500Y-46990000D02*
X160957500Y-41577500D01*
X160957500Y-41577500D02*
X158750000Y-39370000D01*
X158750000Y-39370000D02*
X158750000Y-36505000D01*
%TO.N,Net-(R1-Pad2)*%
X162782500Y-46990000D02*
X162782500Y-50800000D01*
X162782500Y-46990000D02*
X166370000Y-46990000D01*
D26*
%TO.N,Net-(J2-Pad1)*%
X176530000Y-46990000D02*
X176530000Y-38950000D01*
X176530000Y-38950000D02*
X175680000Y-38100000D01*
X176530000Y-52070000D02*
X176530000Y-46990000D01*
%TO.N,Net-(Q2-Pad2)*%
X177800000Y-52070000D02*
X177800000Y-49530000D01*
X177800000Y-49530000D02*
X179427500Y-47902500D01*
X179427500Y-47902500D02*
X180340000Y-47902500D01*
%TO.N,Net-(Q2-Pad1)*%
X180340000Y-49530000D02*
X179070000Y-50800000D01*
X179070000Y-50800000D02*
X179070000Y-52070000D01*
%TD*%
%TA.AperFunction,Conductor*%
%TO.N,GND*%
G36*
X189172121Y-31770002D02*
G01*
X189218614Y-31823658D01*
X189230000Y-31876000D01*
X189230000Y-58294000D01*
X189209998Y-58362121D01*
X189156342Y-58408614D01*
X189104000Y-58420000D01*
X164241194Y-58420000D01*
X164173073Y-58399998D01*
X164126580Y-58346342D01*
X164116029Y-58308483D01*
X164094374Y-58121333D01*
X164093792Y-58116301D01*
X164054810Y-57978539D01*
X164026884Y-57879852D01*
X164026883Y-57879850D01*
X164025506Y-57874983D01*
X164023372Y-57870408D01*
X164023370Y-57870401D01*
X163921653Y-57652269D01*
X163921651Y-57652265D01*
X163919516Y-57647687D01*
X163916674Y-57643505D01*
X163781395Y-57444448D01*
X163781392Y-57444444D01*
X163778549Y-57440261D01*
X163677925Y-57333853D01*
X163609713Y-57261721D01*
X163606233Y-57258041D01*
X163602206Y-57254962D01*
X163411019Y-57108788D01*
X163411015Y-57108785D01*
X163406999Y-57105715D01*
X163355755Y-57078238D01*
X163190435Y-56989595D01*
X163185974Y-56987203D01*
X163181193Y-56985557D01*
X163181189Y-56985555D01*
X162953633Y-56907201D01*
X162948844Y-56905552D01*
X162845311Y-56887669D01*
X162705620Y-56863540D01*
X162705614Y-56863539D01*
X162701710Y-56862865D01*
X162697749Y-56862685D01*
X162697748Y-56862685D01*
X162673069Y-56861564D01*
X162673050Y-56861564D01*
X162671650Y-56861500D01*
X162496985Y-56861500D01*
X162494477Y-56861702D01*
X162494472Y-56861702D01*
X162315056Y-56876137D01*
X162315051Y-56876138D01*
X162310015Y-56876543D01*
X162305107Y-56877748D01*
X162305104Y-56877749D01*
X162082884Y-56932332D01*
X162066461Y-56936366D01*
X162061809Y-56938341D01*
X162061805Y-56938342D01*
X161860319Y-57023868D01*
X161835604Y-57034359D01*
X161623385Y-57168000D01*
X161435262Y-57333853D01*
X161276076Y-57527649D01*
X161149922Y-57744404D01*
X161060045Y-57978539D01*
X161008759Y-58224033D01*
X161008530Y-58229082D01*
X161008529Y-58229088D01*
X161005322Y-58299716D01*
X160982250Y-58366859D01*
X160926541Y-58410870D01*
X160879452Y-58420000D01*
X147731194Y-58420000D01*
X147663073Y-58399998D01*
X147616580Y-58346342D01*
X147606029Y-58308483D01*
X147584374Y-58121333D01*
X147583792Y-58116301D01*
X147544810Y-57978539D01*
X147516884Y-57879852D01*
X147516883Y-57879850D01*
X147515506Y-57874983D01*
X147513372Y-57870408D01*
X147513370Y-57870401D01*
X147411653Y-57652269D01*
X147411651Y-57652265D01*
X147409516Y-57647687D01*
X147406674Y-57643505D01*
X147271395Y-57444448D01*
X147271392Y-57444444D01*
X147268549Y-57440261D01*
X147167925Y-57333853D01*
X147099713Y-57261721D01*
X147096233Y-57258041D01*
X147092206Y-57254962D01*
X146901019Y-57108788D01*
X146901015Y-57108785D01*
X146896999Y-57105715D01*
X146845755Y-57078238D01*
X146680435Y-56989595D01*
X146675974Y-56987203D01*
X146671193Y-56985557D01*
X146671189Y-56985555D01*
X146443633Y-56907201D01*
X146438844Y-56905552D01*
X146335311Y-56887669D01*
X146195620Y-56863540D01*
X146195614Y-56863539D01*
X146191710Y-56862865D01*
X146187749Y-56862685D01*
X146187748Y-56862685D01*
X146163069Y-56861564D01*
X146163050Y-56861564D01*
X146161650Y-56861500D01*
X145986985Y-56861500D01*
X145984477Y-56861702D01*
X145984472Y-56861702D01*
X145805056Y-56876137D01*
X145805051Y-56876138D01*
X145800015Y-56876543D01*
X145795107Y-56877748D01*
X145795104Y-56877749D01*
X145572884Y-56932332D01*
X145556461Y-56936366D01*
X145551809Y-56938341D01*
X145551805Y-56938342D01*
X145350319Y-57023868D01*
X145325604Y-57034359D01*
X145113385Y-57168000D01*
X144925262Y-57333853D01*
X144766076Y-57527649D01*
X144639922Y-57744404D01*
X144550045Y-57978539D01*
X144498759Y-58224033D01*
X144498530Y-58229082D01*
X144498529Y-58229088D01*
X144495322Y-58299716D01*
X144472250Y-58366859D01*
X144416541Y-58410870D01*
X144369452Y-58420000D01*
X143636000Y-58420000D01*
X143567879Y-58399998D01*
X143521386Y-58346342D01*
X143510000Y-58294000D01*
X143510000Y-56449669D01*
X168922001Y-56449669D01*
X168922371Y-56456490D01*
X168927895Y-56507352D01*
X168931521Y-56522604D01*
X168976676Y-56643054D01*
X168985214Y-56658649D01*
X169061715Y-56760724D01*
X169074276Y-56773285D01*
X169176351Y-56849786D01*
X169191946Y-56858324D01*
X169312394Y-56903478D01*
X169327649Y-56907105D01*
X169378514Y-56912631D01*
X169385328Y-56913000D01*
X169907885Y-56913000D01*
X169923124Y-56908525D01*
X169924329Y-56907135D01*
X169926000Y-56899452D01*
X169926000Y-56894884D01*
X170434000Y-56894884D01*
X170438475Y-56910123D01*
X170439865Y-56911328D01*
X170447548Y-56912999D01*
X170974669Y-56912999D01*
X170981490Y-56912629D01*
X171032352Y-56907105D01*
X171047604Y-56903479D01*
X171168054Y-56858324D01*
X171183649Y-56849786D01*
X171285724Y-56773285D01*
X171298285Y-56760724D01*
X171374786Y-56658649D01*
X171383324Y-56643054D01*
X171428478Y-56522606D01*
X171432105Y-56507351D01*
X171437631Y-56456486D01*
X171438000Y-56449672D01*
X171438000Y-56377095D01*
X180947001Y-56377095D01*
X180947338Y-56383614D01*
X180957257Y-56479206D01*
X180960149Y-56492600D01*
X181011588Y-56646784D01*
X181017761Y-56659962D01*
X181103063Y-56797807D01*
X181112099Y-56809208D01*
X181226829Y-56923739D01*
X181238240Y-56932751D01*
X181376243Y-57017816D01*
X181389424Y-57023963D01*
X181543710Y-57075138D01*
X181557086Y-57078005D01*
X181651438Y-57087672D01*
X181657854Y-57088000D01*
X181695385Y-57088000D01*
X181710624Y-57083525D01*
X181711829Y-57082135D01*
X181713500Y-57074452D01*
X181713500Y-57069884D01*
X182221500Y-57069884D01*
X182225975Y-57085123D01*
X182227365Y-57086328D01*
X182235048Y-57087999D01*
X182277095Y-57087999D01*
X182283614Y-57087662D01*
X182379206Y-57077743D01*
X182392600Y-57074851D01*
X182546784Y-57023412D01*
X182559962Y-57017239D01*
X182697807Y-56931937D01*
X182709208Y-56922901D01*
X182790430Y-56841538D01*
X182852713Y-56807459D01*
X182923533Y-56812462D01*
X182968620Y-56841383D01*
X183051512Y-56924130D01*
X183051517Y-56924134D01*
X183056697Y-56929305D01*
X183062927Y-56933145D01*
X183062928Y-56933146D01*
X183200288Y-57017816D01*
X183207262Y-57022115D01*
X183244177Y-57034359D01*
X183368611Y-57075632D01*
X183368613Y-57075632D01*
X183375139Y-57077797D01*
X183381975Y-57078497D01*
X183381978Y-57078498D01*
X183425031Y-57082909D01*
X183479600Y-57088500D01*
X184105400Y-57088500D01*
X184108646Y-57088163D01*
X184108650Y-57088163D01*
X184204308Y-57078238D01*
X184204312Y-57078237D01*
X184211166Y-57077526D01*
X184217702Y-57075345D01*
X184217704Y-57075345D01*
X184349806Y-57031272D01*
X184378946Y-57021550D01*
X184529348Y-56928478D01*
X184562884Y-56894884D01*
X184654305Y-56803303D01*
X184655945Y-56804941D01*
X184704744Y-56770344D01*
X184745706Y-56763500D01*
X185193653Y-56763500D01*
X185219850Y-56766253D01*
X185318056Y-56787128D01*
X185318061Y-56787128D01*
X185324513Y-56788500D01*
X185515487Y-56788500D01*
X185521939Y-56787128D01*
X185521944Y-56787128D01*
X185620150Y-56766253D01*
X185702288Y-56748794D01*
X185708319Y-56746109D01*
X185870722Y-56673803D01*
X185870724Y-56673802D01*
X185876752Y-56671118D01*
X186031253Y-56558866D01*
X186063902Y-56522606D01*
X186154621Y-56421852D01*
X186154622Y-56421851D01*
X186159040Y-56416944D01*
X186254527Y-56251556D01*
X186313542Y-56069928D01*
X186333504Y-55880000D01*
X186313542Y-55690072D01*
X186254527Y-55508444D01*
X186159040Y-55343056D01*
X186113744Y-55292749D01*
X186035675Y-55206045D01*
X186035674Y-55206044D01*
X186031253Y-55201134D01*
X185915366Y-55116937D01*
X185882094Y-55092763D01*
X185882093Y-55092762D01*
X185876752Y-55088882D01*
X185870724Y-55086198D01*
X185870722Y-55086197D01*
X185708319Y-55013891D01*
X185708318Y-55013891D01*
X185702288Y-55011206D01*
X185589721Y-54987279D01*
X185521944Y-54972872D01*
X185521939Y-54972872D01*
X185515487Y-54971500D01*
X185324513Y-54971500D01*
X185318061Y-54972872D01*
X185318056Y-54972872D01*
X185219850Y-54993747D01*
X185193653Y-54996500D01*
X184745683Y-54996500D01*
X184677562Y-54976498D01*
X184653984Y-54955145D01*
X184653478Y-54955652D01*
X184533483Y-54835866D01*
X184528303Y-54830695D01*
X184467743Y-54793365D01*
X184383968Y-54741725D01*
X184383966Y-54741724D01*
X184377738Y-54737885D01*
X184297995Y-54711436D01*
X184216389Y-54684368D01*
X184216387Y-54684368D01*
X184209861Y-54682203D01*
X184203025Y-54681503D01*
X184203022Y-54681502D01*
X184159969Y-54677091D01*
X184105400Y-54671500D01*
X183479600Y-54671500D01*
X183476354Y-54671837D01*
X183476350Y-54671837D01*
X183380692Y-54681762D01*
X183380688Y-54681763D01*
X183373834Y-54682474D01*
X183367298Y-54684655D01*
X183367296Y-54684655D01*
X183350928Y-54690116D01*
X183206054Y-54738450D01*
X183055652Y-54831522D01*
X183050479Y-54836704D01*
X182968862Y-54918463D01*
X182906579Y-54952542D01*
X182835759Y-54947539D01*
X182790671Y-54918618D01*
X182708171Y-54836261D01*
X182696760Y-54827249D01*
X182558757Y-54742184D01*
X182545576Y-54736037D01*
X182391290Y-54684862D01*
X182377914Y-54681995D01*
X182283562Y-54672328D01*
X182277145Y-54672000D01*
X182239615Y-54672000D01*
X182224376Y-54676475D01*
X182223171Y-54677865D01*
X182221500Y-54685548D01*
X182221500Y-57069884D01*
X181713500Y-57069884D01*
X181713500Y-56152115D01*
X181709025Y-56136876D01*
X181707635Y-56135671D01*
X181699952Y-56134000D01*
X180965116Y-56134000D01*
X180949877Y-56138475D01*
X180948672Y-56139865D01*
X180947001Y-56147548D01*
X180947001Y-56377095D01*
X171438000Y-56377095D01*
X171438000Y-56152115D01*
X171433525Y-56136876D01*
X171432135Y-56135671D01*
X171424452Y-56134000D01*
X170452115Y-56134000D01*
X170436876Y-56138475D01*
X170435671Y-56139865D01*
X170434000Y-56147548D01*
X170434000Y-56894884D01*
X169926000Y-56894884D01*
X169926000Y-56152115D01*
X169921525Y-56136876D01*
X169920135Y-56135671D01*
X169912452Y-56134000D01*
X168940116Y-56134000D01*
X168924877Y-56138475D01*
X168923672Y-56139865D01*
X168922001Y-56147548D01*
X168922001Y-56449669D01*
X143510000Y-56449669D01*
X143510000Y-51990915D01*
X143812001Y-51990915D01*
X143812061Y-51993672D01*
X143814601Y-52051855D01*
X143815317Y-52058972D01*
X143857999Y-52328453D01*
X143859978Y-52337023D01*
X143939504Y-52597143D01*
X143942655Y-52605353D01*
X144057613Y-52851882D01*
X144061876Y-52859572D01*
X144210024Y-53087700D01*
X144215314Y-53094719D01*
X144393783Y-53300024D01*
X144399976Y-53306217D01*
X144605281Y-53484686D01*
X144612300Y-53489976D01*
X144840428Y-53638124D01*
X144848118Y-53642387D01*
X145094647Y-53757345D01*
X145102857Y-53760496D01*
X145362977Y-53840022D01*
X145371547Y-53842001D01*
X145641044Y-53884685D01*
X145648128Y-53885399D01*
X145706331Y-53887940D01*
X145709083Y-53888000D01*
X147047885Y-53888000D01*
X147063124Y-53883525D01*
X147064329Y-53882135D01*
X147066000Y-53874452D01*
X147066000Y-53869884D01*
X147574000Y-53869884D01*
X147578475Y-53885123D01*
X147579865Y-53886328D01*
X147587548Y-53887999D01*
X148930915Y-53887999D01*
X148933672Y-53887939D01*
X148991855Y-53885399D01*
X148998972Y-53884683D01*
X149268453Y-53842001D01*
X149277023Y-53840022D01*
X149537143Y-53760496D01*
X149545353Y-53757345D01*
X149791882Y-53642387D01*
X149799572Y-53638124D01*
X150027700Y-53489976D01*
X150034719Y-53484686D01*
X150240024Y-53306217D01*
X150246217Y-53300024D01*
X150424686Y-53094719D01*
X150429976Y-53087700D01*
X150578124Y-52859572D01*
X150582387Y-52851882D01*
X150697345Y-52605353D01*
X150700496Y-52597143D01*
X150780022Y-52337023D01*
X150782001Y-52328453D01*
X150824685Y-52058956D01*
X150825399Y-52051872D01*
X150827940Y-51993669D01*
X150828000Y-51990917D01*
X150828000Y-50652115D01*
X150823525Y-50636876D01*
X150822135Y-50635671D01*
X150814452Y-50634000D01*
X147592115Y-50634000D01*
X147576876Y-50638475D01*
X147575671Y-50639865D01*
X147574000Y-50647548D01*
X147574000Y-53869884D01*
X147066000Y-53869884D01*
X147066000Y-50652115D01*
X147061525Y-50636876D01*
X147060135Y-50635671D01*
X147052452Y-50634000D01*
X143830116Y-50634000D01*
X143814877Y-50638475D01*
X143813672Y-50639865D01*
X143812001Y-50647548D01*
X143812001Y-51990915D01*
X143510000Y-51990915D01*
X143510000Y-43180000D01*
X143806685Y-43180000D01*
X143825931Y-43547241D01*
X143826444Y-43550481D01*
X143826445Y-43550489D01*
X143850083Y-43699734D01*
X143883459Y-43910459D01*
X143978639Y-44265674D01*
X144110427Y-44608994D01*
X144111925Y-44611934D01*
X144221169Y-44826336D01*
X144277380Y-44936657D01*
X144279176Y-44939423D01*
X144279178Y-44939426D01*
X144325472Y-45010712D01*
X144477668Y-45245075D01*
X144709098Y-45530867D01*
X144969133Y-45790902D01*
X145254925Y-46022332D01*
X145563342Y-46222620D01*
X145566276Y-46224115D01*
X145566283Y-46224119D01*
X145846651Y-46366973D01*
X145891006Y-46389573D01*
X146100782Y-46470098D01*
X146168691Y-46496166D01*
X146234326Y-46521361D01*
X146589541Y-46616541D01*
X146592793Y-46617056D01*
X146592802Y-46617058D01*
X146621178Y-46621552D01*
X146685331Y-46651965D01*
X146722858Y-46712233D01*
X146721844Y-46783223D01*
X146682611Y-46842394D01*
X146617615Y-46870962D01*
X146601467Y-46872001D01*
X145709086Y-46872001D01*
X145706328Y-46872061D01*
X145648145Y-46874601D01*
X145641028Y-46875317D01*
X145371547Y-46917999D01*
X145362977Y-46919978D01*
X145102857Y-46999504D01*
X145094647Y-47002655D01*
X144848118Y-47117613D01*
X144840428Y-47121876D01*
X144612300Y-47270024D01*
X144605281Y-47275314D01*
X144399976Y-47453783D01*
X144393783Y-47459976D01*
X144215314Y-47665281D01*
X144210024Y-47672300D01*
X144061876Y-47900428D01*
X144057613Y-47908118D01*
X143942655Y-48154647D01*
X143939504Y-48162857D01*
X143859978Y-48422977D01*
X143857999Y-48431547D01*
X143815315Y-48701044D01*
X143814601Y-48708128D01*
X143812060Y-48766331D01*
X143812000Y-48769083D01*
X143812000Y-50107885D01*
X143816475Y-50123124D01*
X143817865Y-50124329D01*
X143825548Y-50126000D01*
X150809884Y-50126000D01*
X150825123Y-50121525D01*
X150826328Y-50120135D01*
X150827999Y-50112452D01*
X150827999Y-48769086D01*
X150827939Y-48766328D01*
X150825399Y-48708145D01*
X150824683Y-48701028D01*
X150782001Y-48431547D01*
X150780022Y-48422977D01*
X150700496Y-48162857D01*
X150697345Y-48154647D01*
X150582387Y-47908118D01*
X150578124Y-47900428D01*
X150429976Y-47672300D01*
X150424686Y-47665281D01*
X150246217Y-47459976D01*
X150240024Y-47453783D01*
X150034719Y-47275314D01*
X150027700Y-47270024D01*
X149799572Y-47121876D01*
X149791882Y-47117613D01*
X149545353Y-47002655D01*
X149537143Y-46999504D01*
X149277023Y-46919978D01*
X149268453Y-46917999D01*
X148998956Y-46875315D01*
X148991872Y-46874601D01*
X148933669Y-46872060D01*
X148930917Y-46872000D01*
X148038536Y-46872000D01*
X147970415Y-46851998D01*
X147923922Y-46798342D01*
X147913818Y-46728068D01*
X147943312Y-46663488D01*
X148003038Y-46625104D01*
X148018827Y-46621551D01*
X148047193Y-46617059D01*
X148047206Y-46617056D01*
X148050459Y-46616541D01*
X148405674Y-46521361D01*
X148471310Y-46496166D01*
X148539218Y-46470098D01*
X148748994Y-46389573D01*
X148793349Y-46366973D01*
X149073717Y-46224119D01*
X149073724Y-46224115D01*
X149076658Y-46222620D01*
X149385075Y-46022332D01*
X149670867Y-45790902D01*
X149930902Y-45530867D01*
X150162332Y-45245075D01*
X150314528Y-45010712D01*
X150360822Y-44939426D01*
X150360824Y-44939423D01*
X150362620Y-44936657D01*
X150418832Y-44826336D01*
X150528075Y-44611934D01*
X150529573Y-44608994D01*
X150661361Y-44265674D01*
X150756541Y-43910459D01*
X150789917Y-43699734D01*
X150813555Y-43550489D01*
X150813556Y-43550481D01*
X150814069Y-43547241D01*
X150833315Y-43180000D01*
X150814069Y-42812759D01*
X150812629Y-42803664D01*
X150757057Y-42452802D01*
X150756541Y-42449541D01*
X150661361Y-42094326D01*
X150643358Y-42047425D01*
X150530757Y-41754091D01*
X150529573Y-41751006D01*
X150465743Y-41625732D01*
X150364119Y-41426284D01*
X150364115Y-41426277D01*
X150362620Y-41423343D01*
X150335052Y-41380891D01*
X150211950Y-41191331D01*
X150162332Y-41114925D01*
X149930902Y-40829133D01*
X149670867Y-40569098D01*
X149385075Y-40337668D01*
X149281526Y-40270423D01*
X149079427Y-40139178D01*
X149079424Y-40139176D01*
X149076658Y-40137380D01*
X149073724Y-40135885D01*
X149073717Y-40135881D01*
X148751934Y-39971925D01*
X148748994Y-39970427D01*
X148409345Y-39840048D01*
X148352918Y-39796963D01*
X148328741Y-39730210D01*
X148328500Y-39722418D01*
X148328500Y-38569925D01*
X148348502Y-38501804D01*
X148365405Y-38480830D01*
X152780829Y-34065405D01*
X152843141Y-34031379D01*
X152869924Y-34028500D01*
X159550074Y-34028500D01*
X159618195Y-34048502D01*
X159639169Y-34065404D01*
X160244595Y-34670829D01*
X160278620Y-34733142D01*
X160281500Y-34759925D01*
X160281500Y-35347513D01*
X160261498Y-35415634D01*
X160246594Y-35434564D01*
X160170908Y-35513765D01*
X160150699Y-35534912D01*
X160125465Y-35571903D01*
X160070556Y-35616904D01*
X160000032Y-35625075D01*
X159936284Y-35593821D01*
X159915589Y-35569340D01*
X159914311Y-35567365D01*
X159911502Y-35563023D01*
X159749814Y-35385330D01*
X159672983Y-35324653D01*
X159565330Y-35239633D01*
X159565325Y-35239630D01*
X159561276Y-35236432D01*
X159556760Y-35233939D01*
X159556757Y-35233937D01*
X159355474Y-35122823D01*
X159355470Y-35122821D01*
X159350950Y-35120326D01*
X159346081Y-35118602D01*
X159346077Y-35118600D01*
X159129360Y-35041856D01*
X159129356Y-35041855D01*
X159124485Y-35040130D01*
X159119392Y-35039223D01*
X159119389Y-35039222D01*
X158893052Y-34998905D01*
X158893046Y-34998904D01*
X158887963Y-34997999D01*
X158795474Y-34996869D01*
X158652907Y-34995127D01*
X158652905Y-34995127D01*
X158647737Y-34995064D01*
X158410256Y-35031404D01*
X158298003Y-35068094D01*
X158186817Y-35104434D01*
X158186811Y-35104437D01*
X158181899Y-35106042D01*
X158177313Y-35108429D01*
X158177309Y-35108431D01*
X158052452Y-35173428D01*
X157968800Y-35216975D01*
X157813717Y-35333415D01*
X157747235Y-35358320D01*
X157677839Y-35343328D01*
X157627565Y-35293198D01*
X157620085Y-35276885D01*
X157616269Y-35266707D01*
X157616267Y-35266703D01*
X157613115Y-35258295D01*
X157525761Y-35141739D01*
X157409205Y-35054385D01*
X157272816Y-35003255D01*
X157210634Y-34996500D01*
X155209366Y-34996500D01*
X155147184Y-35003255D01*
X155010795Y-35054385D01*
X154894239Y-35141739D01*
X154806885Y-35258295D01*
X154755755Y-35394684D01*
X154749000Y-35456866D01*
X154749000Y-37553134D01*
X154755755Y-37615316D01*
X154806885Y-37751705D01*
X154894239Y-37868261D01*
X155010795Y-37955615D01*
X155019203Y-37958767D01*
X155119730Y-37996453D01*
X155176494Y-38039095D01*
X155201194Y-38105656D01*
X155201500Y-38114435D01*
X155201500Y-46928157D01*
X155200763Y-46941764D01*
X155199207Y-46956092D01*
X155196676Y-46979388D01*
X155197605Y-46990009D01*
X155201050Y-47029388D01*
X155201379Y-47034214D01*
X155201500Y-47036686D01*
X155201500Y-47039769D01*
X155201801Y-47042837D01*
X155205690Y-47082506D01*
X155205804Y-47083728D01*
X155213913Y-47176413D01*
X155215400Y-47181532D01*
X155215920Y-47186833D01*
X155242791Y-47275834D01*
X155243126Y-47276967D01*
X155259684Y-47333957D01*
X155269091Y-47366336D01*
X155271544Y-47371068D01*
X155273084Y-47376169D01*
X155275978Y-47381612D01*
X155316731Y-47458260D01*
X155317343Y-47459426D01*
X155357271Y-47536453D01*
X155360108Y-47541926D01*
X155363431Y-47546089D01*
X155365934Y-47550796D01*
X155424755Y-47622918D01*
X155425446Y-47623774D01*
X155456738Y-47662973D01*
X155459242Y-47665477D01*
X155459884Y-47666195D01*
X155463585Y-47670528D01*
X155490935Y-47704062D01*
X155495682Y-47707989D01*
X155495684Y-47707991D01*
X155526262Y-47733287D01*
X155535042Y-47741277D01*
X159263145Y-51469379D01*
X159272247Y-51479522D01*
X159295968Y-51509025D01*
X159300696Y-51512992D01*
X159334421Y-51541291D01*
X159338069Y-51544472D01*
X159339881Y-51546115D01*
X159342075Y-51548309D01*
X159375349Y-51575642D01*
X159376147Y-51576304D01*
X159447474Y-51636154D01*
X159452144Y-51638722D01*
X159456261Y-51642103D01*
X159538120Y-51685995D01*
X159539280Y-51686624D01*
X159615389Y-51728466D01*
X159615394Y-51728468D01*
X159620787Y-51731433D01*
X159625865Y-51733044D01*
X159630563Y-51735563D01*
X159719498Y-51762753D01*
X159720702Y-51763128D01*
X159809306Y-51791235D01*
X159814597Y-51791828D01*
X159819698Y-51793388D01*
X159835634Y-51795007D01*
X159835735Y-51795017D01*
X159901485Y-51821802D01*
X159942317Y-51879882D01*
X159949000Y-51920372D01*
X159949000Y-52945657D01*
X159948263Y-52959264D01*
X159944176Y-52996888D01*
X159944713Y-53003023D01*
X159948550Y-53046888D01*
X159948879Y-53051714D01*
X159949000Y-53054186D01*
X159949000Y-53057269D01*
X159949301Y-53060337D01*
X159953190Y-53100006D01*
X159953312Y-53101319D01*
X159961413Y-53193913D01*
X159962900Y-53199032D01*
X159963420Y-53204333D01*
X159990291Y-53293334D01*
X159990626Y-53294467D01*
X160005962Y-53347250D01*
X160016591Y-53383836D01*
X160019044Y-53388568D01*
X160020584Y-53393669D01*
X160023478Y-53399112D01*
X160064231Y-53475760D01*
X160064843Y-53476926D01*
X160107608Y-53559426D01*
X160110931Y-53563589D01*
X160113434Y-53568296D01*
X160172255Y-53640418D01*
X160172946Y-53641274D01*
X160204238Y-53680473D01*
X160206742Y-53682977D01*
X160207384Y-53683695D01*
X160211085Y-53688028D01*
X160238435Y-53721562D01*
X160273771Y-53750795D01*
X160282537Y-53758772D01*
X160533150Y-54009385D01*
X160542252Y-54019527D01*
X160565968Y-54049025D01*
X160570696Y-54052992D01*
X160604421Y-54081291D01*
X160608069Y-54084472D01*
X160609881Y-54086115D01*
X160612075Y-54088309D01*
X160645349Y-54115642D01*
X160646147Y-54116304D01*
X160717474Y-54176154D01*
X160722144Y-54178722D01*
X160726261Y-54182103D01*
X160784145Y-54213140D01*
X160808086Y-54225977D01*
X160809245Y-54226606D01*
X160885381Y-54268462D01*
X160885389Y-54268465D01*
X160890787Y-54271433D01*
X160895869Y-54273045D01*
X160900563Y-54275562D01*
X160989531Y-54302762D01*
X160990559Y-54303082D01*
X161079306Y-54331235D01*
X161084602Y-54331829D01*
X161089698Y-54333387D01*
X161182257Y-54342790D01*
X161183393Y-54342911D01*
X161217008Y-54346681D01*
X161229730Y-54348108D01*
X161229734Y-54348108D01*
X161233227Y-54348500D01*
X161236754Y-54348500D01*
X161237739Y-54348555D01*
X161243419Y-54349002D01*
X161272825Y-54351989D01*
X161280337Y-54352752D01*
X161280339Y-54352752D01*
X161286462Y-54353374D01*
X161332108Y-54349059D01*
X161343967Y-54348500D01*
X168803309Y-54348500D01*
X168871430Y-54368502D01*
X168917923Y-54422158D01*
X168928619Y-54487670D01*
X168916524Y-54602750D01*
X168917083Y-54608890D01*
X168928823Y-54737885D01*
X168934894Y-54804596D01*
X168936632Y-54810502D01*
X168936633Y-54810506D01*
X168944344Y-54836704D01*
X168991069Y-54995461D01*
X168992119Y-54999029D01*
X168991441Y-54999229D01*
X168997956Y-55065273D01*
X168984680Y-55102323D01*
X168976679Y-55116937D01*
X168931522Y-55237394D01*
X168927895Y-55252649D01*
X168922369Y-55303514D01*
X168922000Y-55310328D01*
X168922000Y-55607885D01*
X168926475Y-55623124D01*
X168927865Y-55624329D01*
X168935548Y-55626000D01*
X169733758Y-55626000D01*
X169747803Y-55626785D01*
X169896817Y-55643500D01*
X170456004Y-55643500D01*
X170606713Y-55628723D01*
X170609002Y-55628032D01*
X170629724Y-55626000D01*
X171419884Y-55626000D01*
X171435123Y-55621525D01*
X171436328Y-55620135D01*
X171438993Y-55607885D01*
X180947000Y-55607885D01*
X180951475Y-55623124D01*
X180952865Y-55624329D01*
X180960548Y-55626000D01*
X181695385Y-55626000D01*
X181710624Y-55621525D01*
X181711829Y-55620135D01*
X181713500Y-55612452D01*
X181713500Y-54690116D01*
X181709025Y-54674877D01*
X181707635Y-54673672D01*
X181699952Y-54672001D01*
X181657905Y-54672001D01*
X181651386Y-54672338D01*
X181555794Y-54682257D01*
X181542400Y-54685149D01*
X181388216Y-54736588D01*
X181375038Y-54742761D01*
X181237193Y-54828063D01*
X181225792Y-54837099D01*
X181111261Y-54951829D01*
X181102249Y-54963240D01*
X181017184Y-55101243D01*
X181011037Y-55114424D01*
X180959862Y-55268710D01*
X180956995Y-55282086D01*
X180947328Y-55376438D01*
X180947000Y-55382855D01*
X180947000Y-55607885D01*
X171438993Y-55607885D01*
X171440878Y-55599217D01*
X171443770Y-55599846D01*
X171458001Y-55551379D01*
X171511657Y-55504886D01*
X171563999Y-55493500D01*
X173763653Y-55493500D01*
X173789850Y-55496253D01*
X173888056Y-55517128D01*
X173888061Y-55517128D01*
X173894513Y-55518500D01*
X174085487Y-55518500D01*
X174091939Y-55517128D01*
X174091944Y-55517128D01*
X174190150Y-55496253D01*
X174272288Y-55478794D01*
X174278319Y-55476109D01*
X174440722Y-55403803D01*
X174440724Y-55403802D01*
X174446752Y-55401118D01*
X174601253Y-55288866D01*
X174680247Y-55201134D01*
X174724621Y-55151852D01*
X174724622Y-55151851D01*
X174729040Y-55146944D01*
X174808201Y-55009834D01*
X174821223Y-54987279D01*
X174821224Y-54987278D01*
X174824527Y-54981556D01*
X174883542Y-54799928D01*
X174889551Y-54742761D01*
X174902814Y-54616565D01*
X174903504Y-54610000D01*
X174883542Y-54420072D01*
X174824527Y-54238444D01*
X174729040Y-54073056D01*
X174707403Y-54049025D01*
X174605675Y-53936045D01*
X174605674Y-53936044D01*
X174601253Y-53931134D01*
X174502157Y-53859136D01*
X174452094Y-53822763D01*
X174452093Y-53822762D01*
X174446752Y-53818882D01*
X174440724Y-53816198D01*
X174440722Y-53816197D01*
X174278319Y-53743891D01*
X174278318Y-53743891D01*
X174272288Y-53741206D01*
X174178888Y-53721353D01*
X174091944Y-53702872D01*
X174091939Y-53702872D01*
X174085487Y-53701500D01*
X173894513Y-53701500D01*
X173888061Y-53702872D01*
X173888056Y-53702872D01*
X173789850Y-53723747D01*
X173763653Y-53726500D01*
X171538191Y-53726500D01*
X171470070Y-53706498D01*
X171423577Y-53652842D01*
X171413473Y-53582568D01*
X171417826Y-53563241D01*
X171420468Y-53554707D01*
X171420469Y-53554704D01*
X171422290Y-53548820D01*
X171429847Y-53476926D01*
X171442832Y-53353378D01*
X171442832Y-53353377D01*
X171443476Y-53347250D01*
X171430449Y-53204109D01*
X171425665Y-53151543D01*
X171425664Y-53151540D01*
X171425106Y-53145404D01*
X171404059Y-53073891D01*
X171369620Y-52956880D01*
X171367881Y-52950971D01*
X171322549Y-52864257D01*
X171276835Y-52776815D01*
X171273981Y-52771355D01*
X171146981Y-52613399D01*
X170991719Y-52483119D01*
X170986327Y-52480155D01*
X170986323Y-52480152D01*
X170819506Y-52388444D01*
X170814109Y-52385477D01*
X170620916Y-52324193D01*
X170614799Y-52323507D01*
X170614795Y-52323506D01*
X170540652Y-52315190D01*
X170463183Y-52306500D01*
X169903996Y-52306500D01*
X169753287Y-52321277D01*
X169737238Y-52326122D01*
X169700822Y-52331500D01*
X162092000Y-52331500D01*
X162023879Y-52311498D01*
X161977386Y-52257842D01*
X161966000Y-52205500D01*
X161966000Y-52025245D01*
X161986002Y-51957124D01*
X162039658Y-51910631D01*
X162109932Y-51900527D01*
X162158116Y-51917985D01*
X162190090Y-51937694D01*
X162197262Y-51942115D01*
X162242513Y-51957124D01*
X162358611Y-51995632D01*
X162358613Y-51995632D01*
X162365139Y-51997797D01*
X162371975Y-51998497D01*
X162371978Y-51998498D01*
X162415031Y-52002909D01*
X162469600Y-52008500D01*
X163095400Y-52008500D01*
X163098646Y-52008163D01*
X163098650Y-52008163D01*
X163194308Y-51998238D01*
X163194312Y-51998237D01*
X163201166Y-51997526D01*
X163207702Y-51995345D01*
X163207704Y-51995345D01*
X163339806Y-51951272D01*
X163368946Y-51941550D01*
X163519348Y-51848478D01*
X163644305Y-51723303D01*
X163648146Y-51717072D01*
X163733275Y-51578968D01*
X163733276Y-51578966D01*
X163737115Y-51572738D01*
X163769795Y-51474210D01*
X163790632Y-51411389D01*
X163790632Y-51411387D01*
X163792797Y-51404861D01*
X163803500Y-51300400D01*
X163803500Y-50299600D01*
X163792526Y-50193834D01*
X163792807Y-50193805D01*
X163791000Y-50176880D01*
X163791000Y-48124500D01*
X163811002Y-48056379D01*
X163864658Y-48009886D01*
X163917000Y-47998500D01*
X165057936Y-47998500D01*
X165126057Y-48018502D01*
X165153747Y-48042669D01*
X165165457Y-48056379D01*
X165229102Y-48130898D01*
X165232858Y-48134106D01*
X165233573Y-48134717D01*
X165421624Y-48295328D01*
X165637498Y-48427616D01*
X165642068Y-48429509D01*
X165642072Y-48429511D01*
X165866836Y-48522611D01*
X165871409Y-48524505D01*
X165938513Y-48540615D01*
X166112784Y-48582454D01*
X166112790Y-48582455D01*
X166117597Y-48583609D01*
X166370000Y-48603474D01*
X166622403Y-48583609D01*
X166627210Y-48582455D01*
X166627216Y-48582454D01*
X166801487Y-48540615D01*
X166868591Y-48524505D01*
X166873164Y-48522611D01*
X167097928Y-48429511D01*
X167097932Y-48429509D01*
X167102502Y-48427616D01*
X167318376Y-48295328D01*
X167506427Y-48134717D01*
X167507142Y-48134106D01*
X167510898Y-48130898D01*
X167675328Y-47938376D01*
X167801007Y-47733287D01*
X167805030Y-47726722D01*
X167807616Y-47722502D01*
X167828411Y-47672300D01*
X167902611Y-47493164D01*
X167902612Y-47493162D01*
X167904505Y-47488591D01*
X167931570Y-47375856D01*
X167962454Y-47247216D01*
X167962455Y-47247210D01*
X167963609Y-47242403D01*
X167983474Y-46990000D01*
X167963609Y-46737597D01*
X167961322Y-46728068D01*
X167911387Y-46520076D01*
X167904505Y-46491409D01*
X167864012Y-46393650D01*
X167809511Y-46262072D01*
X167809509Y-46262068D01*
X167807616Y-46257498D01*
X167675328Y-46041624D01*
X167510898Y-45849102D01*
X167506776Y-45845581D01*
X167432141Y-45781837D01*
X167318376Y-45684672D01*
X167102502Y-45552384D01*
X167097932Y-45550491D01*
X167097928Y-45550489D01*
X166873164Y-45457389D01*
X166873162Y-45457388D01*
X166868591Y-45455495D01*
X166783968Y-45435179D01*
X166627216Y-45397546D01*
X166627210Y-45397545D01*
X166622403Y-45396391D01*
X166370000Y-45376526D01*
X166117597Y-45396391D01*
X166112790Y-45397545D01*
X166112784Y-45397546D01*
X165956032Y-45435179D01*
X165871409Y-45455495D01*
X165866838Y-45457388D01*
X165866836Y-45457389D01*
X165642072Y-45550489D01*
X165642068Y-45550491D01*
X165637498Y-45552384D01*
X165421624Y-45684672D01*
X165307859Y-45781837D01*
X165233225Y-45845581D01*
X165229102Y-45849102D01*
X165225894Y-45852858D01*
X165153747Y-45937331D01*
X165094296Y-45976140D01*
X165057936Y-45981500D01*
X163611306Y-45981500D01*
X163543185Y-45961498D01*
X163529298Y-45950317D01*
X163529229Y-45950404D01*
X163523483Y-45945866D01*
X163518303Y-45940695D01*
X163406553Y-45871811D01*
X163373968Y-45851725D01*
X163373966Y-45851724D01*
X163367738Y-45847885D01*
X163207254Y-45794655D01*
X163206389Y-45794368D01*
X163206387Y-45794368D01*
X163199861Y-45792203D01*
X163193025Y-45791503D01*
X163193022Y-45791502D01*
X163149969Y-45787091D01*
X163095400Y-45781500D01*
X162469600Y-45781500D01*
X162466354Y-45781837D01*
X162466350Y-45781837D01*
X162370692Y-45791762D01*
X162370688Y-45791763D01*
X162363834Y-45792474D01*
X162357298Y-45794655D01*
X162357296Y-45794655D01*
X162225971Y-45838469D01*
X162196054Y-45848450D01*
X162189822Y-45852306D01*
X162189823Y-45852306D01*
X162158303Y-45871811D01*
X162089851Y-45890649D01*
X162022081Y-45869488D01*
X161976510Y-45815047D01*
X161966000Y-45764667D01*
X161966000Y-41639340D01*
X161966737Y-41625732D01*
X161970159Y-41594236D01*
X161970159Y-41594232D01*
X161970824Y-41588111D01*
X161966450Y-41538109D01*
X161966121Y-41533284D01*
X161966000Y-41530813D01*
X161966000Y-41527731D01*
X161961809Y-41484989D01*
X161961687Y-41483674D01*
X161956409Y-41423343D01*
X161953587Y-41391087D01*
X161952100Y-41385968D01*
X161951580Y-41380667D01*
X161924699Y-41291633D01*
X161924364Y-41290500D01*
X161900127Y-41207078D01*
X161900125Y-41207074D01*
X161898408Y-41201163D01*
X161895957Y-41196434D01*
X161894416Y-41191331D01*
X161850730Y-41109169D01*
X161850183Y-41108127D01*
X161810228Y-41031045D01*
X161810227Y-41031044D01*
X161807392Y-41025574D01*
X161804069Y-41021411D01*
X161801566Y-41016704D01*
X161742763Y-40944605D01*
X161742000Y-40943660D01*
X161710761Y-40904527D01*
X161708270Y-40902036D01*
X161707620Y-40901309D01*
X161703908Y-40896963D01*
X161680455Y-40868208D01*
X161676565Y-40863438D01*
X161671823Y-40859515D01*
X161671821Y-40859513D01*
X161641227Y-40834203D01*
X161632447Y-40826213D01*
X159795405Y-38989171D01*
X159761379Y-38926859D01*
X159758500Y-38900076D01*
X159758500Y-37662487D01*
X159778502Y-37594366D01*
X159793406Y-37575436D01*
X159885730Y-37478825D01*
X159885731Y-37478824D01*
X159889301Y-37475088D01*
X159914535Y-37438097D01*
X159969444Y-37393096D01*
X160039968Y-37384925D01*
X160103716Y-37416179D01*
X160124411Y-37440660D01*
X160128498Y-37446977D01*
X160290186Y-37624670D01*
X160338071Y-37662487D01*
X160474670Y-37770367D01*
X160474675Y-37770370D01*
X160478724Y-37773568D01*
X160483240Y-37776061D01*
X160483243Y-37776063D01*
X160684526Y-37887177D01*
X160684530Y-37887179D01*
X160689050Y-37889674D01*
X160693919Y-37891398D01*
X160693923Y-37891400D01*
X160910640Y-37968144D01*
X160910644Y-37968145D01*
X160915515Y-37969870D01*
X160920608Y-37970777D01*
X160920611Y-37970778D01*
X161146948Y-38011095D01*
X161146954Y-38011096D01*
X161152037Y-38012001D01*
X161239400Y-38013068D01*
X161387093Y-38014873D01*
X161387095Y-38014873D01*
X161392263Y-38014936D01*
X161629744Y-37978596D01*
X161741997Y-37941906D01*
X161853183Y-37905566D01*
X161853189Y-37905563D01*
X161858101Y-37903958D01*
X161862687Y-37901571D01*
X161862691Y-37901569D01*
X162006081Y-37826924D01*
X162075741Y-37813211D01*
X162141756Y-37839336D01*
X162153357Y-37849592D01*
X168232075Y-43928310D01*
X168346262Y-44022103D01*
X168351684Y-44025010D01*
X168351688Y-44025013D01*
X168515132Y-44112651D01*
X168520563Y-44115563D01*
X168656798Y-44157215D01*
X168703800Y-44171585D01*
X168703802Y-44171585D01*
X168709698Y-44173388D01*
X168734164Y-44175873D01*
X168900335Y-44192752D01*
X168900339Y-44192752D01*
X168906463Y-44193374D01*
X169015396Y-44183077D01*
X169097230Y-44175342D01*
X169097234Y-44175341D01*
X169103362Y-44174762D01*
X169109260Y-44173004D01*
X169109264Y-44173003D01*
X169286994Y-44120020D01*
X169286996Y-44120019D01*
X169292897Y-44118260D01*
X169467847Y-44026018D01*
X169621548Y-43901553D01*
X169748147Y-43749605D01*
X169842822Y-43575960D01*
X169901965Y-43387232D01*
X169923325Y-43190612D01*
X169906088Y-42993587D01*
X169875523Y-42888386D01*
X169852628Y-42809579D01*
X169852626Y-42809574D01*
X169850909Y-42803664D01*
X169759892Y-42628074D01*
X169663262Y-42507028D01*
X163643897Y-36487663D01*
X172171500Y-36487663D01*
X172171501Y-39712336D01*
X172171561Y-39713705D01*
X172171561Y-39713716D01*
X172173652Y-39761612D01*
X172174257Y-39775480D01*
X172174815Y-39779002D01*
X172217509Y-40048571D01*
X172217511Y-40048578D01*
X172218198Y-40052918D01*
X172300325Y-40321540D01*
X172302185Y-40325529D01*
X172302187Y-40325534D01*
X172417174Y-40572126D01*
X172417177Y-40572132D01*
X172419036Y-40576118D01*
X172421437Y-40579815D01*
X172534598Y-40754067D01*
X172572023Y-40811697D01*
X172756308Y-41023692D01*
X172968303Y-41207977D01*
X172971994Y-41210374D01*
X172971998Y-41210377D01*
X173125860Y-41310296D01*
X173203882Y-41360964D01*
X173207868Y-41362823D01*
X173207874Y-41362826D01*
X173454466Y-41477813D01*
X173454471Y-41477815D01*
X173458460Y-41479675D01*
X173462673Y-41480963D01*
X173462678Y-41480965D01*
X173605614Y-41524665D01*
X173727082Y-41561802D01*
X173731422Y-41562489D01*
X173731429Y-41562491D01*
X173989709Y-41603397D01*
X174004520Y-41605743D01*
X174008081Y-41605898D01*
X174008086Y-41605899D01*
X174066287Y-41608440D01*
X174066291Y-41608440D01*
X174067663Y-41608500D01*
X175520500Y-41608500D01*
X175588621Y-41628502D01*
X175635114Y-41682158D01*
X175646500Y-41734500D01*
X175646500Y-45255500D01*
X175626498Y-45323621D01*
X175572842Y-45370114D01*
X175520500Y-45381500D01*
X175381866Y-45381500D01*
X175319684Y-45388255D01*
X175183295Y-45439385D01*
X175066739Y-45526739D01*
X174979385Y-45643295D01*
X174928255Y-45779684D01*
X174921500Y-45841866D01*
X174921500Y-48138134D01*
X174928255Y-48200316D01*
X174979385Y-48336705D01*
X175066739Y-48453261D01*
X175183295Y-48540615D01*
X175319684Y-48591745D01*
X175381866Y-48598500D01*
X175520500Y-48598500D01*
X175588621Y-48618502D01*
X175635114Y-48672158D01*
X175646500Y-48724500D01*
X175646500Y-51274349D01*
X175630915Y-51335050D01*
X175575477Y-51435891D01*
X175514193Y-51629084D01*
X175513507Y-51635201D01*
X175513506Y-51635205D01*
X175507739Y-51686624D01*
X175496500Y-51786817D01*
X175496500Y-52346004D01*
X175511277Y-52496713D01*
X175569858Y-52690742D01*
X175665010Y-52869698D01*
X175793110Y-53026763D01*
X175797857Y-53030690D01*
X175797859Y-53030692D01*
X175944528Y-53152027D01*
X175944531Y-53152029D01*
X175949278Y-53155956D01*
X176127565Y-53252356D01*
X176196733Y-53273767D01*
X176315293Y-53310468D01*
X176315296Y-53310469D01*
X176321180Y-53312290D01*
X176327305Y-53312934D01*
X176327306Y-53312934D01*
X176516622Y-53332832D01*
X176516623Y-53332832D01*
X176522750Y-53333476D01*
X176606014Y-53325898D01*
X176718457Y-53315665D01*
X176718460Y-53315664D01*
X176724596Y-53315106D01*
X176730502Y-53313368D01*
X176730506Y-53313367D01*
X176913120Y-53259620D01*
X176913119Y-53259620D01*
X176919029Y-53257881D01*
X176924486Y-53255028D01*
X176924489Y-53255027D01*
X177041363Y-53193927D01*
X177098460Y-53164077D01*
X177098462Y-53164077D01*
X177098645Y-53163981D01*
X177098663Y-53164016D01*
X177164441Y-53144111D01*
X177225409Y-53159271D01*
X177397565Y-53252356D01*
X177466733Y-53273767D01*
X177585293Y-53310468D01*
X177585296Y-53310469D01*
X177591180Y-53312290D01*
X177597305Y-53312934D01*
X177597306Y-53312934D01*
X177786622Y-53332832D01*
X177786623Y-53332832D01*
X177792750Y-53333476D01*
X177876014Y-53325898D01*
X177988457Y-53315665D01*
X177988460Y-53315664D01*
X177994596Y-53315106D01*
X178000502Y-53313368D01*
X178000506Y-53313367D01*
X178183121Y-53259620D01*
X178183123Y-53259619D01*
X178186111Y-53258740D01*
X178189029Y-53257881D01*
X178189282Y-53258740D01*
X178254662Y-53252286D01*
X178291406Y-53265452D01*
X178298295Y-53270615D01*
X178306696Y-53273764D01*
X178306699Y-53273766D01*
X178361920Y-53294467D01*
X178434684Y-53321745D01*
X178496866Y-53328500D01*
X179643134Y-53328500D01*
X179705316Y-53321745D01*
X179841705Y-53270615D01*
X179958261Y-53183261D01*
X180045615Y-53066705D01*
X180096745Y-52930316D01*
X180103500Y-52868134D01*
X180103500Y-51271866D01*
X180096745Y-51209684D01*
X180074241Y-51149655D01*
X180069058Y-51078848D01*
X180103128Y-51016330D01*
X180795545Y-50323913D01*
X180810579Y-50311072D01*
X180830842Y-50296350D01*
X180951253Y-50208866D01*
X181025866Y-50126000D01*
X181074621Y-50071852D01*
X181074622Y-50071851D01*
X181079040Y-50066944D01*
X181174527Y-49901556D01*
X181233542Y-49719928D01*
X181240850Y-49650401D01*
X181252814Y-49536565D01*
X181253504Y-49530000D01*
X181233542Y-49340072D01*
X181174527Y-49158444D01*
X181171223Y-49152721D01*
X181091267Y-49014233D01*
X181074529Y-48945238D01*
X181097750Y-48878146D01*
X181134083Y-48844089D01*
X181258120Y-48767332D01*
X181264348Y-48763478D01*
X181389305Y-48638303D01*
X181413840Y-48598500D01*
X181478275Y-48493968D01*
X181478276Y-48493966D01*
X181482115Y-48487738D01*
X181537797Y-48319861D01*
X181548500Y-48215400D01*
X181548500Y-47589600D01*
X181548163Y-47586350D01*
X181538238Y-47490692D01*
X181538237Y-47490688D01*
X181537526Y-47483834D01*
X181529567Y-47459976D01*
X181483868Y-47323002D01*
X181481550Y-47316054D01*
X181388478Y-47165652D01*
X181301891Y-47079216D01*
X181267812Y-47016934D01*
X181272815Y-46946114D01*
X181301736Y-46901025D01*
X181384134Y-46818483D01*
X181389305Y-46813303D01*
X181463267Y-46693315D01*
X181478275Y-46668968D01*
X181478276Y-46668966D01*
X181482115Y-46662738D01*
X181528724Y-46522216D01*
X181535632Y-46501389D01*
X181535632Y-46501387D01*
X181537797Y-46494861D01*
X181538620Y-46486836D01*
X181548172Y-46393598D01*
X181548500Y-46390400D01*
X181548500Y-45764600D01*
X181537526Y-45658834D01*
X181529945Y-45636109D01*
X181483868Y-45498002D01*
X181481550Y-45491054D01*
X181388478Y-45340652D01*
X181263303Y-45215695D01*
X181214703Y-45185738D01*
X181183178Y-45158115D01*
X181156550Y-45125466D01*
X181125245Y-45087082D01*
X181124554Y-45086226D01*
X181093262Y-45047027D01*
X181090758Y-45044523D01*
X181090116Y-45043805D01*
X181086415Y-45039472D01*
X181059065Y-45005938D01*
X181054216Y-45001926D01*
X181023738Y-44976713D01*
X181014958Y-44968723D01*
X179750107Y-43703873D01*
X179747925Y-43701691D01*
X179633739Y-43607897D01*
X179546588Y-43561167D01*
X179464870Y-43517351D01*
X179464869Y-43517351D01*
X179459437Y-43514438D01*
X179350781Y-43481218D01*
X179276200Y-43458416D01*
X179276198Y-43458416D01*
X179270302Y-43456613D01*
X179212449Y-43450736D01*
X179079666Y-43437248D01*
X179079661Y-43437248D01*
X179073538Y-43436626D01*
X178949475Y-43448354D01*
X178882771Y-43454659D01*
X178882769Y-43454659D01*
X178876638Y-43455239D01*
X178781871Y-43483490D01*
X178693007Y-43509981D01*
X178693005Y-43509982D01*
X178687104Y-43511741D01*
X178512154Y-43603982D01*
X178358453Y-43728447D01*
X178231854Y-43880396D01*
X178137178Y-44054041D01*
X178078035Y-44242768D01*
X178077370Y-44248891D01*
X178077369Y-44248895D01*
X178075211Y-44268764D01*
X178056676Y-44439388D01*
X178073913Y-44636413D01*
X178075632Y-44642330D01*
X178075633Y-44642335D01*
X178113614Y-44773064D01*
X178129091Y-44826336D01*
X178220108Y-45001926D01*
X178316738Y-45122973D01*
X178722058Y-45528292D01*
X179094595Y-45900829D01*
X179128620Y-45963142D01*
X179131500Y-45989925D01*
X179131500Y-46390400D01*
X179131837Y-46393646D01*
X179131837Y-46393650D01*
X179141461Y-46486402D01*
X179142474Y-46496166D01*
X179144655Y-46502702D01*
X179144655Y-46502704D01*
X179167863Y-46572266D01*
X179198450Y-46663946D01*
X179291522Y-46814348D01*
X179296704Y-46819521D01*
X179300178Y-46822989D01*
X179334257Y-46885272D01*
X179329254Y-46956092D01*
X179286756Y-47012965D01*
X179242625Y-47033015D01*
X179242798Y-47033546D01*
X179179606Y-47054078D01*
X179173304Y-47055944D01*
X179119828Y-47070273D01*
X179109137Y-47073138D01*
X179103258Y-47076134D01*
X179103249Y-47076137D01*
X179097183Y-47079228D01*
X179078921Y-47086792D01*
X179072458Y-47088892D01*
X179072453Y-47088894D01*
X179066169Y-47090936D01*
X179008619Y-47124163D01*
X179002866Y-47127286D01*
X178943661Y-47157452D01*
X178938527Y-47161609D01*
X178938526Y-47161610D01*
X178933237Y-47165893D01*
X178916949Y-47177088D01*
X178905331Y-47183796D01*
X178900425Y-47188213D01*
X178900420Y-47188217D01*
X178855962Y-47228247D01*
X178850947Y-47232531D01*
X178842869Y-47239073D01*
X178835515Y-47245028D01*
X178821479Y-47259064D01*
X178816694Y-47263605D01*
X178767315Y-47308066D01*
X178763435Y-47313406D01*
X178763428Y-47313414D01*
X178759427Y-47318922D01*
X178746586Y-47333957D01*
X178353595Y-47726948D01*
X178291283Y-47760974D01*
X178220468Y-47755909D01*
X178163632Y-47713362D01*
X178138821Y-47646842D01*
X178138500Y-47637853D01*
X178138500Y-45841866D01*
X178131745Y-45779684D01*
X178080615Y-45643295D01*
X177993261Y-45526739D01*
X177876705Y-45439385D01*
X177740316Y-45388255D01*
X177678134Y-45381500D01*
X177539500Y-45381500D01*
X177471379Y-45361498D01*
X177424886Y-45307842D01*
X177413500Y-45255500D01*
X177413500Y-41704169D01*
X177433502Y-41636048D01*
X177487158Y-41589555D01*
X177519789Y-41579720D01*
X177578634Y-41570400D01*
X177632918Y-41561802D01*
X177637128Y-41560515D01*
X177637136Y-41560513D01*
X177897322Y-41480965D01*
X177897327Y-41480963D01*
X177901540Y-41479675D01*
X177905529Y-41477815D01*
X177905534Y-41477813D01*
X178152126Y-41362826D01*
X178152132Y-41362823D01*
X178156118Y-41360964D01*
X178234140Y-41310296D01*
X178388002Y-41210377D01*
X178388006Y-41210374D01*
X178391697Y-41207977D01*
X178603692Y-41023692D01*
X178787977Y-40811697D01*
X178824676Y-40755186D01*
X180589960Y-40755186D01*
X180597418Y-40765554D01*
X180812662Y-40939854D01*
X180817984Y-40943721D01*
X181120823Y-41140387D01*
X181126532Y-41143683D01*
X181448275Y-41307620D01*
X181454286Y-41310296D01*
X181791395Y-41439700D01*
X181797672Y-41441740D01*
X182146463Y-41535198D01*
X182152901Y-41536567D01*
X182509560Y-41593055D01*
X182516104Y-41593743D01*
X182876699Y-41612641D01*
X182883301Y-41612641D01*
X183243896Y-41593743D01*
X183250440Y-41593055D01*
X183607099Y-41536567D01*
X183613537Y-41535198D01*
X183962328Y-41441740D01*
X183968605Y-41439700D01*
X184305714Y-41310296D01*
X184311725Y-41307620D01*
X184633468Y-41143683D01*
X184639177Y-41140387D01*
X184942016Y-40943721D01*
X184947338Y-40939854D01*
X185161634Y-40766322D01*
X185170100Y-40754067D01*
X185163766Y-40742976D01*
X182892812Y-38472022D01*
X182878868Y-38464408D01*
X182877035Y-38464539D01*
X182870420Y-38468790D01*
X180597100Y-40742110D01*
X180589960Y-40755186D01*
X178824676Y-40755186D01*
X178825403Y-40754067D01*
X178938563Y-40579815D01*
X178940964Y-40576118D01*
X178942823Y-40572132D01*
X178942826Y-40572126D01*
X179057813Y-40325534D01*
X179057815Y-40325529D01*
X179059675Y-40321540D01*
X179141802Y-40052918D01*
X179142489Y-40048578D01*
X179142491Y-40048571D01*
X179185185Y-39779003D01*
X179185185Y-39779002D01*
X179185743Y-39775480D01*
X179186551Y-39756987D01*
X179188440Y-39713713D01*
X179188440Y-39713709D01*
X179188500Y-39712337D01*
X179188500Y-38818494D01*
X179208502Y-38750373D01*
X179262158Y-38703880D01*
X179332432Y-38693776D01*
X179397012Y-38723270D01*
X179435396Y-38782996D01*
X179438949Y-38798785D01*
X179443433Y-38827097D01*
X179444802Y-38833537D01*
X179538260Y-39182328D01*
X179540300Y-39188605D01*
X179669704Y-39525714D01*
X179672380Y-39531725D01*
X179836317Y-39853468D01*
X179839613Y-39859177D01*
X180036279Y-40162016D01*
X180040146Y-40167338D01*
X180213678Y-40381634D01*
X180225933Y-40390100D01*
X180237024Y-40383766D01*
X182507978Y-38112812D01*
X182514356Y-38101132D01*
X183244408Y-38101132D01*
X183244539Y-38102965D01*
X183248790Y-38109580D01*
X185522110Y-40382900D01*
X185535186Y-40390040D01*
X185545554Y-40382582D01*
X185719854Y-40167338D01*
X185723721Y-40162016D01*
X185920387Y-39859177D01*
X185923683Y-39853468D01*
X186087620Y-39531725D01*
X186090296Y-39525714D01*
X186219700Y-39188605D01*
X186221740Y-39182328D01*
X186315198Y-38833537D01*
X186316567Y-38827099D01*
X186373055Y-38470440D01*
X186373743Y-38463896D01*
X186392641Y-38103301D01*
X186392641Y-38096699D01*
X186373743Y-37736104D01*
X186373055Y-37729560D01*
X186316567Y-37372901D01*
X186315198Y-37366463D01*
X186221740Y-37017672D01*
X186219700Y-37011395D01*
X186090296Y-36674286D01*
X186087620Y-36668275D01*
X185923683Y-36346532D01*
X185920387Y-36340823D01*
X185723721Y-36037984D01*
X185719854Y-36032662D01*
X185546322Y-35818366D01*
X185534067Y-35809900D01*
X185522976Y-35816234D01*
X183252022Y-38087188D01*
X183244408Y-38101132D01*
X182514356Y-38101132D01*
X182515592Y-38098868D01*
X182515461Y-38097035D01*
X182511210Y-38090420D01*
X180237890Y-35817100D01*
X180224814Y-35809960D01*
X180214446Y-35817418D01*
X180040146Y-36032662D01*
X180036279Y-36037984D01*
X179839613Y-36340823D01*
X179836317Y-36346532D01*
X179672380Y-36668275D01*
X179669704Y-36674286D01*
X179540300Y-37011395D01*
X179538260Y-37017672D01*
X179444802Y-37366463D01*
X179443434Y-37372898D01*
X179438948Y-37401220D01*
X179408535Y-37465373D01*
X179348267Y-37502900D01*
X179277277Y-37501886D01*
X179218106Y-37462653D01*
X179189538Y-37397657D01*
X179188499Y-37381509D01*
X179188499Y-36487664D01*
X179185743Y-36424520D01*
X179172487Y-36340823D01*
X179142491Y-36151429D01*
X179142489Y-36151422D01*
X179141802Y-36147082D01*
X179059675Y-35878460D01*
X179039699Y-35835621D01*
X178942826Y-35627874D01*
X178942823Y-35627868D01*
X178940964Y-35623882D01*
X178842208Y-35471811D01*
X178825403Y-35445933D01*
X180589900Y-35445933D01*
X180596234Y-35457024D01*
X182867188Y-37727978D01*
X182881132Y-37735592D01*
X182882965Y-37735461D01*
X182889580Y-37731210D01*
X185162900Y-35457890D01*
X185170040Y-35444814D01*
X185162582Y-35434446D01*
X184947338Y-35260146D01*
X184942016Y-35256279D01*
X184639177Y-35059613D01*
X184633468Y-35056317D01*
X184311725Y-34892380D01*
X184305714Y-34889704D01*
X183968605Y-34760300D01*
X183962328Y-34758260D01*
X183613537Y-34664802D01*
X183607099Y-34663433D01*
X183250440Y-34606945D01*
X183243896Y-34606257D01*
X182883301Y-34587359D01*
X182876699Y-34587359D01*
X182516104Y-34606257D01*
X182509560Y-34606945D01*
X182152901Y-34663433D01*
X182146463Y-34664802D01*
X181797672Y-34758260D01*
X181791395Y-34760300D01*
X181454286Y-34889704D01*
X181448275Y-34892380D01*
X181126532Y-35056317D01*
X181120823Y-35059613D01*
X180817984Y-35256279D01*
X180812662Y-35260146D01*
X180598366Y-35433678D01*
X180589900Y-35445933D01*
X178825403Y-35445933D01*
X178790377Y-35391998D01*
X178790374Y-35391994D01*
X178787977Y-35388303D01*
X178603692Y-35176308D01*
X178391697Y-34992023D01*
X178388006Y-34989626D01*
X178388002Y-34989623D01*
X178159815Y-34841437D01*
X178156118Y-34839036D01*
X178152132Y-34837177D01*
X178152126Y-34837174D01*
X177905534Y-34722187D01*
X177905529Y-34722185D01*
X177901540Y-34720325D01*
X177897327Y-34719037D01*
X177897322Y-34719035D01*
X177715457Y-34663433D01*
X177632918Y-34638198D01*
X177628578Y-34637511D01*
X177628571Y-34637509D01*
X177359003Y-34594815D01*
X177355480Y-34594257D01*
X177351919Y-34594102D01*
X177351914Y-34594101D01*
X177293713Y-34591560D01*
X177293709Y-34591560D01*
X177292337Y-34591500D01*
X175681171Y-34591500D01*
X174067664Y-34591501D01*
X174066295Y-34591561D01*
X174066284Y-34591561D01*
X174008086Y-34594101D01*
X174008080Y-34594102D01*
X174004520Y-34594257D01*
X173931045Y-34605894D01*
X173731429Y-34637509D01*
X173731422Y-34637511D01*
X173727082Y-34638198D01*
X173644543Y-34663433D01*
X173462678Y-34719035D01*
X173462673Y-34719037D01*
X173458460Y-34720325D01*
X173454471Y-34722185D01*
X173454466Y-34722187D01*
X173207874Y-34837174D01*
X173207868Y-34837177D01*
X173203882Y-34839036D01*
X173200185Y-34841437D01*
X172971998Y-34989623D01*
X172971994Y-34989626D01*
X172968303Y-34992023D01*
X172756308Y-35176308D01*
X172572023Y-35388303D01*
X172569626Y-35391994D01*
X172569623Y-35391998D01*
X172517792Y-35471811D01*
X172419036Y-35623882D01*
X172417177Y-35627868D01*
X172417174Y-35627874D01*
X172320301Y-35835621D01*
X172300325Y-35878460D01*
X172218198Y-36147082D01*
X172217511Y-36151422D01*
X172217509Y-36151429D01*
X172187513Y-36340823D01*
X172174257Y-36424520D01*
X172171500Y-36487663D01*
X163643897Y-36487663D01*
X162991855Y-35835621D01*
X162982753Y-35825478D01*
X162962897Y-35800782D01*
X162959032Y-35795975D01*
X162920578Y-35763708D01*
X162916931Y-35760528D01*
X162915119Y-35758885D01*
X162912925Y-35756691D01*
X162879651Y-35729358D01*
X162878853Y-35728696D01*
X162807526Y-35668846D01*
X162802856Y-35666278D01*
X162798739Y-35662897D01*
X162716914Y-35619023D01*
X162715755Y-35618394D01*
X162639619Y-35576538D01*
X162639611Y-35576535D01*
X162634213Y-35573567D01*
X162629131Y-35571955D01*
X162624437Y-35569438D01*
X162535469Y-35542238D01*
X162534441Y-35541918D01*
X162445694Y-35513765D01*
X162440398Y-35513171D01*
X162436493Y-35511977D01*
X162436418Y-35511934D01*
X162435994Y-35511825D01*
X162435302Y-35511613D01*
X162435301Y-35511613D01*
X162435262Y-35511601D01*
X162435348Y-35511320D01*
X162370711Y-35474235D01*
X162368506Y-35471811D01*
X162343940Y-35444814D01*
X162331306Y-35430929D01*
X162300254Y-35367083D01*
X162298500Y-35346130D01*
X162298500Y-34351842D01*
X162299237Y-34338235D01*
X162302659Y-34306737D01*
X162302659Y-34306732D01*
X162303324Y-34300611D01*
X162298950Y-34250609D01*
X162298621Y-34245784D01*
X162298500Y-34243313D01*
X162298500Y-34240231D01*
X162294309Y-34197489D01*
X162294187Y-34196174D01*
X162286623Y-34109719D01*
X162286087Y-34103587D01*
X162284600Y-34098468D01*
X162284080Y-34093167D01*
X162257218Y-34004194D01*
X162256862Y-34002994D01*
X162230909Y-33913663D01*
X162228455Y-33908929D01*
X162226916Y-33903831D01*
X162183316Y-33821831D01*
X162182702Y-33820663D01*
X162142726Y-33743541D01*
X162142725Y-33743540D01*
X162139892Y-33738074D01*
X162136569Y-33733911D01*
X162134066Y-33729204D01*
X162075245Y-33657082D01*
X162074554Y-33656226D01*
X162043262Y-33617027D01*
X162040758Y-33614523D01*
X162040116Y-33613805D01*
X162036415Y-33609472D01*
X162009065Y-33575938D01*
X161973737Y-33546712D01*
X161964958Y-33538723D01*
X160776855Y-32350621D01*
X160767753Y-32340478D01*
X160747897Y-32315782D01*
X160744032Y-32310975D01*
X160705578Y-32278708D01*
X160701931Y-32275528D01*
X160700119Y-32273885D01*
X160697925Y-32271691D01*
X160664651Y-32244358D01*
X160663853Y-32243696D01*
X160592526Y-32183846D01*
X160587856Y-32181278D01*
X160583739Y-32177897D01*
X160501914Y-32134023D01*
X160500755Y-32133394D01*
X160424619Y-32091538D01*
X160424611Y-32091535D01*
X160419213Y-32088567D01*
X160414131Y-32086955D01*
X160409437Y-32084438D01*
X160320469Y-32057238D01*
X160319441Y-32056918D01*
X160230694Y-32028765D01*
X160225398Y-32028171D01*
X160220302Y-32026613D01*
X160127743Y-32017210D01*
X160126607Y-32017089D01*
X160092992Y-32013319D01*
X160080270Y-32011892D01*
X160080266Y-32011892D01*
X160076773Y-32011500D01*
X160073246Y-32011500D01*
X160072261Y-32011445D01*
X160066581Y-32010998D01*
X160037175Y-32008011D01*
X160029663Y-32007248D01*
X160029661Y-32007248D01*
X160023538Y-32006626D01*
X159981259Y-32010623D01*
X159977891Y-32010941D01*
X159966033Y-32011500D01*
X152461843Y-32011500D01*
X152448236Y-32010763D01*
X152416738Y-32007341D01*
X152416733Y-32007341D01*
X152410612Y-32006676D01*
X152384362Y-32008973D01*
X152360612Y-32011050D01*
X152355786Y-32011379D01*
X152353314Y-32011500D01*
X152350231Y-32011500D01*
X152338262Y-32012674D01*
X152307494Y-32015690D01*
X152306181Y-32015812D01*
X152261916Y-32019685D01*
X152213587Y-32023913D01*
X152208468Y-32025400D01*
X152203167Y-32025920D01*
X152114166Y-32052791D01*
X152113033Y-32053126D01*
X152029586Y-32077370D01*
X152029582Y-32077372D01*
X152023664Y-32079091D01*
X152018932Y-32081544D01*
X152013831Y-32083084D01*
X152008388Y-32085978D01*
X151931740Y-32126731D01*
X151930574Y-32127343D01*
X151853547Y-32167271D01*
X151848074Y-32170108D01*
X151843911Y-32173431D01*
X151839204Y-32175934D01*
X151767082Y-32234755D01*
X151766226Y-32235446D01*
X151727027Y-32266738D01*
X151724523Y-32269242D01*
X151723805Y-32269884D01*
X151719472Y-32273585D01*
X151685938Y-32300935D01*
X151682011Y-32305682D01*
X151682009Y-32305684D01*
X151656713Y-32336262D01*
X151648723Y-32345042D01*
X146650621Y-37343145D01*
X146640478Y-37352247D01*
X146610975Y-37375968D01*
X146607008Y-37380696D01*
X146578709Y-37414421D01*
X146575528Y-37418069D01*
X146573885Y-37419881D01*
X146571691Y-37422075D01*
X146544358Y-37455349D01*
X146543696Y-37456147D01*
X146483846Y-37527474D01*
X146481278Y-37532144D01*
X146477897Y-37536261D01*
X146456892Y-37575436D01*
X146434023Y-37618086D01*
X146433394Y-37619245D01*
X146391538Y-37695381D01*
X146391535Y-37695389D01*
X146388567Y-37700787D01*
X146386955Y-37705869D01*
X146384438Y-37710563D01*
X146357238Y-37799531D01*
X146356918Y-37800559D01*
X146328765Y-37889306D01*
X146328171Y-37894602D01*
X146326613Y-37899698D01*
X146318599Y-37978596D01*
X146317218Y-37992187D01*
X146317089Y-37993393D01*
X146311500Y-38043227D01*
X146311500Y-38046754D01*
X146311445Y-38047739D01*
X146310998Y-38053419D01*
X146306626Y-38096462D01*
X146307866Y-38109580D01*
X146310941Y-38142109D01*
X146311500Y-38153967D01*
X146311500Y-39722418D01*
X146291498Y-39790539D01*
X146237842Y-39837032D01*
X146230667Y-39840044D01*
X145891006Y-39970427D01*
X145888066Y-39971925D01*
X145566284Y-40135881D01*
X145566277Y-40135885D01*
X145563343Y-40137380D01*
X145560577Y-40139176D01*
X145560574Y-40139178D01*
X145517211Y-40167338D01*
X145254925Y-40337668D01*
X144969133Y-40569098D01*
X144709098Y-40829133D01*
X144477668Y-41114925D01*
X144428050Y-41191331D01*
X144304949Y-41380891D01*
X144277380Y-41423343D01*
X144275885Y-41426277D01*
X144275881Y-41426284D01*
X144174257Y-41625732D01*
X144110427Y-41751006D01*
X144109243Y-41754091D01*
X143996643Y-42047425D01*
X143978639Y-42094326D01*
X143883459Y-42449541D01*
X143882943Y-42452802D01*
X143827372Y-42803664D01*
X143825931Y-42812759D01*
X143806685Y-43180000D01*
X143510000Y-43180000D01*
X143510000Y-31876000D01*
X143530002Y-31807879D01*
X143583658Y-31761386D01*
X143636000Y-31750000D01*
X189104000Y-31750000D01*
X189172121Y-31770002D01*
G37*
%TD.AperFunction*%
%TD*%
M02*
